*** Life<FredkinCell> 48x17 ***

Generation = 0, Population = 18.
-0---------------
-----------------
-----------------
-----------------
-----------------
------0----------
-----------------
-----------------
-----------------
-----------------
-----------------
-----------------
-----------------
-----0---00------
--------------0--
-----------------
-----------------
-----------------
-----------------
-----------------
0----------------
-----------------
-----------------
-----------------
-----------------
-----------------
-----------------
-----------------
-----------------
-----------------
-0-----0------0--
-----------0-----
-----------------
-----------------
-----------------
----------------0
-----------------
------0----------
-----------------
-------------0---
--------0------0-
-----------------
-----------------
-----------------
-----------------
-----------------
--0-----------0--
-----------------

Generation = 15, Population = 402.
--00----0--0-1-1-
-0120--0-10--01-1
00000-0-0---1-20-
1100---0--20-1-0-
-10------4110-402
2------0332101513
--0---011120--30-
21-0-120011------
111--41100----30-
-01-2-100----1210
-----120----20302
-01--11----02210-
23311-----30204--
102-1-3--42323---
-2-0-0-0-04050---
200---20--301----
120---3-0--------
---2-110-2241----
20---11102--20---
02200-00-----11--
-0--11---0----200
-2---1-22-1---1--
231--4-224-0-20-0
020003--012--0---
-12---2--12-1---0
----2--10--------
-120-1-11-1-1---0
02-00--------1-4-
1-1-1--31-1------
10-220210--2-3-3-
-12133-1--6-----3
2-21--4--4-5-----
-0-0---42-1-5---2
--210--122-0-1-2-
--10111-222-5----
-2030-12-313--22-
-1-2-2-53-24-2112
-1621-0-22---2003
3--434-222-2--21-
----23113---2----
22-----5-----301-
411023220-1--2--3
-0-----01--15----
-0-101---1-21---2
12-0-2-2-----4-1-
1--031--12-0-----
0-0---5-00--00-12
-0-----2--2--110-

Generation = 30, Population = 394.
-132-4-3--3---3--
--2--------4----8
0-310--3231-----1
4---3----2---23-1
--3043--35-12---4
6-6---42---22-92-
-4---5-13-23-3---
3---132-22--01---
--303-23-14--4-21
--334-522--233---
2-1--24--2114-4-3
-33-122--3-35-23-
5---6-32---2---06
2--55--4-46--54-8
--7-2---84828----
421-1-4234-5131--
------7-525-11-5-
1---31--242-3--3-
--0---511332-1-3-
-3313320--4------
1-5--2-211---39--
-21-02236-3----2-
--42-4-74--326--1
27-00-0--3--12---
-635334-23-4--334
1-30----------1--
53-2---4331--3745
4-30-1---2------2
7---32-4--26-1--3
42--845----5----8
-4---89--68+6----
--+33+488----24-3
7--7---8-4316-2--
--46223-523-6-4-3
316--21432--+45-4
64--6-278----54-2
6224-48-9-35---2-
4-9---4----81-629
5-------7-1--46-6
54--7--4-6--356-5
-6-3-6--------4--
--11-5-3--33--5-8
41--00-23-21-245-
---1----12--5---7
55-2---40-33--533
-222--3---6---8--
4-2464+5---6-6-3-
12------2-7-3----

Generation = 45, Population = 413.
55----3345----436
-2--33-05-645-4--
34-12-5-544-77-23
8--0--5---524-8--
64--566-7--356+2-
82+186+-+79-6---7
7-63--2-7--5-4-1-
6--0--4-4------5-
564-5-5-23-44-77-
4165-----8-2774-2
---0-3-252-3--725
--3-1-40--4-6--4-
+6---2-29-44---2+
-1-8-67-+9+57++--
+6--51--+4-3--85-
5-1--0723-7----4-
---2-390---0--26-
---3453---56556-7
-----47-----51662
-----6-3-7847---4
-3---3--226----4-
1-2-33848--369-34
-5-6-85--9---65-4
--131--6-4--33--5
---854-7-----57-6
-2--51-6--93-61-9
--9--466-5---7-6-
----3-----77-7---
934-5--86-4+4-279
----9--3+8--9----
3-7--+---8+---4++
7-+86-7++8-+6-673
77--4-4-8---+---6
526+45+++-5------
------3--7--+59--
--3-6739-+--8--7-
--5-5--++66--36--
---7-574-9++----+
-4768----5-3-5--6
-7---8-8-96+6-9-8
-++6-+-----7-67-4
--42-9-547-725---
-7--30--56-----7+
---233-53-6-56+--
893-7-58-29-----5
125--89165+746-3-
73-5--+-22+--695+
13--13+----8--5--

Generation = 60, Population = 400.
--8-6+7-8---+----
6-+-679--7+-5-8-+
96-247-6-7+4+-+-9
-45----372-----1-
+-+1--+4-7-3--+--
+6+---+---+4-9+--
97-8-9-2886+-+97-
+8-46-------26-7-
+-77----5--55+-89
8+8---+3--8-+8+6-
778-75+5+2-8-2-4-
4---19--4--7----6
---4---7+-------+
--+++++-+++7-+-9-
++---4+--4-9+-+5-
--443--75+--865--
----1--48---63-79
4-4-96538--8-+-6+
+88--+------+--7-
0--2--96+9+-+7--7
5-7-+--844-----7-
-73-95-5-6-4-++3-
-9+-+---5---+---8
--5-4-6--+-79-4-8
--+++6-+7-------7
9-7657----++---7-
+-+-4-8-6---8-+-+
4-74-6--38+--+5+8
+5+5--+----+--58-
-----5+5+----+-+-
-++-+-+-7---+-7-+
95--8+-+-+8-76+85
+7+9--9+8--4-----
86---+-----6+----
97----7-8+-----+8
---+99+-++-7+-+++
--+--9-+--+-9----
--+-+-+--+---5--+
-5+-+-+-+-3888-+6
--4----+6--+8--++
--+---9+-6----+-8
-86---+-++59-7---
+-+-56++7-55---+-
9-----97-+-99+-6-
---2--6---+--7+--
44----+6--+-7-+6+
+-77+-++-+-+-++8+
--2459---8++84-7-

Generation = 75, Population = 411.
-+9-6+88--+++--+-
-----++-+9+95++-+
+7+7-8+-9++7+9+++
-555--86-4-5-++--
--+----8++8+6----
+7+5+-+-+---++-6-
++++--3-++-+9-+-+
-99779--684---67+
+-9+---+----5++--
-++-6-+3--+8-9---
99+68-+9+3+-+6-6-
6-521-6--6-+-----
+-+5-5-------5+4-
-----+-----9-+-+-
-+-794--+4-9+4+5+
-6965----+--+9-++
8-+8-6---6---68--
-3----+-+8+-+---+
+--36+---+---4-9+
---29--9+-++-----
---2-4-+6---+9--+
4-87+--8-9--++-3-
--+++-6+6+59+----
7+6-4+-------8-+-
-+++--+++----7+-+
------7--+-++-+++
+++997+---7++-+--
88--7--569-+-++-+
-6+6-9------8+7-+
9--9---7++++++-+-
8-++-+-+--+-+---+
+9-+-+--+-++--+--
--+--------+-++--
+--++++++-+7+5+++
+7++-------8++--+
+99-+++---+8+---+
-----++---+-+--+7
-6++---6-+---9--+
+7-+--+-+66-+-+--
+-6+-+9+9+-++-+-+
--+-+++---+--+---
++--4++7+--9--+--
---6---------8-+-
--6-69-79++++--7+
9-4----+-5+8--+7-
--9-9+--+----+---
++9--8---++++--9-
-3-7-++-+++-----+

Generation = 90, Population = 391.
----+++9+----++--
++-+7-+---+--+---
+9-----+----++-++
-7-8---9+5--+----
--+5---9-+-+7+---
+++++--+-+---++7-
---+9--++--+++-++
-+-+---7+-9+--+++
--++-+---7-++++--
-+--++-9-+++-++96
--+-++--+8+-+-+-+
7-7--+---+-+----+
+--7+--+---9--+--
+----+---+-+--+++
-------9+6-++-+9-
---7-5------+-+-+
--+--+-9-----8+-+
94--+-+++-++-+--+
+9----+-+--6+---+
76-++--+---+++++-
+--6+-++++---+--+
-+-----+++------+
6+-----------+-+-
+-+77+-+9-+++-++-
-++++-+-+++++++++
+----9-++-++-+---
+--9+-----+---+7+
+-+----8-+++9-+++
-6+--++++--+-+---
-----++-+-++-+---
--+-+--+++-+-+--+
-+++--+-+--++++-+
-+--9---+++++----
+-+-+++--+-9+5---
---+--++--+-+-+++
--+-+++-+-++++-+-
+7++-+++-8-++-++-
+--+-+-7---+-+-+-
+9+---+-------+-+
+-6-+++++--+--+++
++-+-+-+++-+++---
-+877++9-------++
--+7+-++-----++--
-68-++---+--+++8+
9+6----+7-+9--+--
--9-+--7----+++++
+--++++-+-+----9+
--7+---++-+---+--

Generation = 105, Population = 429.
+-+--+-++-+++----
++++--+-+-+-+++++
--+++-+--++-+-+--
---+-++++7-9--+-8
-7---++-----++--+
-+++++-++-+-+-+--
-+-+-++--+-+-++++
++--9-+--+++-++-+
-++-+--+--+-++---
+-+7-+--++---+++-
-+---++-+-------+
+-+2-++6-+++-+++-
--+8-7+--4+-+---+
+++++++---+-+-+--
-+---5--+-+++7++-
+8-+8+++--+-+--+-
+++-++-++-++--+--
-8-++---+-++-++-+
+++4+-+-+++-----+
8--+--+++---++++-
-----+-+-++-+--++
7-+++++---+--++--
6++-++-+---+----+
+-++++-+---+-++-+
+--+-+++-+-++-+++
-7+++---++-++--++
--++-8+------+--+
--+-+---+---+++++
+-++++-++--++--+-
--+---++--+----++
---++----++++-+-+
-+++--+-++--+--++
+-++++--+--+-----
-+--++-+-++----+-
+---+--+-+-+-----
-+-+-+---+-++--+-
+--+-++-+--++---+
+++--++-++-+---++
-9-----++--++-+++
+--+-++-+-+-+++--
++--+++++++++++--
+-+8---++-+-++-+-
-++-+++++-++-++-+
+7+-+++-+--++--9+
+-+-+-++9---++-+-
+++-+++---++-+---
-+++-+++++--++--+
7-+++-+-+++-+--++

Generation = 120, Population = 412.
-++---++-++-+-+--
-++--++-+--+--+--
-++-+++++-+-++--+
+++--+--+9+--++-+
++--+++--+---++++
+--++-+--++-+-++-
---+++--+---+++-+
-+------+--+-+--+
+-+++-+++++----+-
++---+-----+-+--+
+---+++-+---+++-+
-+--++--+-+-+++-+
++--+++-+7-++9+-+
+-+++++++--++-+--
+--++9-+++-++---+
+--+--+-+++--+-++
+-+++---++-----+-
--++-+--++++-+++-
------++----+7-+-
--+-+++------+--+
+++7-++---+--++--
9+++-++--+-++-+9+
--+++++-+-++--+--
--++--++++-+--+-+
-++------+--+-+++
-++-+-++--++++-++
------+++--++-+++
+-+-------+--+--+
---+-++---+--+--+
--+++-+-++-+-+++-
++-+-++++++-+++++
++-++-+--+++++++-
++++++++---++-++-
+-+--+-+--+-+-+++
---++-----++-+--+
-------------+---
-7----+-+--+-+--+
+--++-++-+++++---
++--+++-++--++++-
+++-+-++---+-++++
+----+-++-+-+++++
----+-+---+---+--
-----+++--+--++--
-----++---++----+
-+---++++7-----+-
++++-+--++----+++
+++++++---++++++-
--+--+++--+-+--+-

*** Life<FredkinCell> 42x1 ***

Generation = 0, Population = 13.
-
0
-
0
0
-
-
0
0
-
-
-
-
0
-
-
0
0
-
-
-
-
-
-
-
-
-
-
-
0
0
0
0
-
-
-
-
-
-
0
-
-

Generation = 84, Population = 19.
-
-
-
-
+
-
+
-
+
-
+
+
+
-
-
+
+
+
+
-
-
-
+
-
-
-
-
+
-
-
+
-
-
+
+
+
+
-
-
+
+
-

*** Life<FredkinCell> 39x37 ***

Generation = 0, Population = 24.
-----------------------------------0-
-------------------------------------
-------------------------------------
-------------------------------------
------------------------------------0
------------0--0---------------------
-------------------------------------
--0------------------------0---------
--------------------------0----------
-------------------------------------
--------------0----------------------
-------0-----------------------------
------------------------------------0
------0------------------------------
-------------------------------------
-------------------------------------
-------------0-----------------------
------------0------------------------
-------------------------------------
-------------------------------------
-------------------------------------
--------------------------------0----
-------------------------------------
--0----------------------------------
---------------------0---------------
-------------------------------------
-------------------------------------
--------------------------0----------
-------------------------------------
-0------------0----------------------
-------------------------------------
----------------------0--------------
-------------------------------------
-------------------------------------
--------------------0-0--------------
---------------0-----0---------------
-------------------------------------
-------------------------------------
-------------------------------------

Generation = 88, Population = 500.
6--+-7---99---++-9-++-++---+--+++--++
---+++---7--+------+--+-+--++-----+-+
+-+-----+---+---+---+-+-+-----+-+----
---+------++-++---9-------++-3-++-9++
+-+-+-+---------+---+-------------+-8
+++-+-+-++++--+-++--+-+++--+--+-+--++
--+---++---+------++--+-++-++-+5--++-
+--++--++--+--+++--+---+--------+-+--
------+5++-79-+----+--+----+++++---++
+-++----+-++--+---8++-++----+---+---8
--+---+-+---+-+-+---+-------+-+---+-+
--+--++5-+---+-+--+--++-+--++++--8+--
--------+-+-+---9-+-+-+---+-+--------
++-+--+--+--+----+-+--+-+7-++-+-+----
-----9----+5--6----3-9----++----+--8+
9-------+---+-+----+---9--878--++----
8+---7----++--+----++++----+--+-+--++
+-+8-+--++--+-+++---------+++--9+----
9-7-------+---+-+---+-+---+-+-----+-+
+----+-+-++--++--8+9+++--+-+--3++-+77
----9-------+-+-+-+---+-+-+-+-+-+-+--
++++-8---+++----++-8+--+-++-++----9--
-------------5----+5-------7-7----++-
---7---++-5---+---+-+-+-+--+---++---+
-79---3----------9+8--+-4--+8++--9+7-
-+--+--+99------++--+--+--+-+-+------
----5-+---------+-----+-----9-+-+---+
---+--+-++++++--------++-++-+-+9+----
--------------------+-+-----+-9-----+
-++7++---+---+-+-++-++----++---+-++-+
---------+-----------------9---8-+---
------+-+-6+---89-+-----+--++--+--+9-
---------6+---+------+----+7---7+---+
9+-------+----+--++---+--++---+---+--
--------+-+-+-----------+---+--------
+9+---+---++-+9+-++-+---9+--+---+++98
------+-5-+-----+-+-+---+-+-+-+-+-+-+
-+---9++-7+-+----++-+--7-9+--++-+-+-+
-----------------36----------2---49--

Generation = 176, Population = 502.
-+-+-----+-+---+-+---+-----+-----+-+-
-++-++---++--+---++--+----+---+-----+
+-+-+-+-+-+-+-+-----+-+-+-+-+-+------
+++-+--++++-+---+++++---+++----++-+--
--+-+-+-+---+-+-+-----+---------+---+
+---+------++-----+-+---+---------+++
-++-+-+--++-----+++-----++--+---+-+--
+-++--+-----+--+--+----++--++-+---+--
--+--+--++--++----+--++-+-----+--++--
+--+----+-----+++---+--++-+++-++--+-+
----+---+-+-+-+-+-------+---+-+-----+
-++++-+--++-----++++----++--+---+-++-
--------+-+-+-+-+-+-----+-+-+-+-+-+--
-----++-++--++----+-+----++-+++-++---
-+-+-+-+-+-+-----+-----+-+-+---+-+---
--+-+-------+---+-----+-+-------+----
---+-+-+---+-----+-----+-+-+---+-----
-+--++--+++-++--++--+++---+-------+-+
+-+-------------------------+-+-+-+-+
+-++++--+++-++-++-++++-++-+----++++--
+---+---+---------+-----+-------+---+
---++---+-+----+----+--++--+--+++-+--
+++-+---+++-+---+++-+---+++-----+-+--
+-----+----++---+-++--+-----+---+-+-+
-++-+-+---+-----+-+-----++--+---+-+--
+-----+-+--++---+--++-+-+--++-+-+--++
--+-------+-+-+-+---+-------------+--
--++-+-+++-+++-+--+--++++-----+--+++-
--------+-+-----+-+---------+-+-+-+--
+++-+-+--+------+----++--+--+----++-+
-+---+---+-----+-+-+---+-+-+---+-+-+-
--+---+-+---+---+-+-+-----+-----+---+
-+-------+-----+-+-+-+-+---+---+-+-+-
--+--++--++--++---+-----++--+++--+--+
----+-+-+-+-+-+-----+-+-+-+-+-+-----+
-++-+-+---++----+-++----++-++---+-++-
--+-+-----+-----+-------+-------+----
+-+-+---+--+--+-+--++---+--++-+----++
+-+-++--+++-+9--+-+-++--+-+-----+++--

*** Life<FredkinCell> 8x41 ***

Generation = 0, Population = 27.
-----0--------------------0--------------
--0------------00-0------------------0-0-
-0-------------------00------------------
-----------0-----0----------0------------
----------00---------0-------0-----------
----0------0-------------------0---------
-0-------------------------------0-------
--0---------0-----0------------0---------

Generation = 132, Population = 139.
--------+-++++---++------+-++-+++--------
-+++---+-+-+++-++--+-+--+--++-++--+------
------++--++-+++----++--+++--++--+-------
--+-+---+-++---+-+-+-++++++--+++-+-++--++
-+-------+--+---+++---+++--+++-+++-++----
+++-+++++---+++-+++--+--+--++--++-+---+-+
-+---+++-----++++---++----+--------------
---++-++--+-+--+++--++--+++---+-+---++-++

*** Life<FredkinCell> 47x8 ***

Generation = 0, Population = 19.
--------
--------
-------0
--------
--------
--------
--------
--------
-----0--
-0------
--0-----
-----0--
-------0
-0------
--------
--------
--------
--------
--------
----00--
--------
--------
--------
--------
--0-----
----0---
--------
-0------
--------
----0---
--------
---0----
-----00-
---0----
--------
--------
---0----
--------
--------
--------
--------
--------
--------
--------
--------
--------
-----0--

Generation = 13, Population = 189.
---0-10-
-4--0--0
241-----
--01-1--
04----0-
--0102-1
1-112-1-
0402--0-
-0------
0--30-02
2-1---52
23--25--
143--3--
--0--201
--313-22
-4-00--1
1-3-12--
-2-1-21-
3--0121-
--33--45
1-------
--3-342-
00-0----
0-----0-
4--44220
--7--041
2012--00
1-12-5-3
-11---2-
2-----4-
--0-0102
-3113303
----2134
14-214-3
1-1-0-1-
--04-40-
2-0----1
2---32-0
-10-0024
01---2-2
---0-420
-00--1--
0--20-00
--0-0000
0---0021
--0-000-
0--1----

Generation = 26, Population = 165.
---1-6-3
---2--05
-83----0
44-52--0
5-----2-
------11
-----43-
-947-2-3
----4--6
66-7---9
5---++9-
4-3---3-
2-56--34
4--3---3
--4255--
-5---426
22--3-5-
----9+--
-3---43-
-6-9-9++
4-6-62-4
---86--1
-25----2
15---9--
9--+--2-
-6+512--
-1-31-2-
4-2--+29
----146-
--476---
15------
59-3----
84------
2---5-4+
---36---
13485+3-
-76--81-
6--1754-
---611-7
----6203
-----751
46------
-------1
-513-311
32-6-3-4
1--4-3--
-52----4

*** Life<FredkinCell> 23x26 ***

Generation = 0, Population = 22.
--------------0-----------
----------0----------0----
----0--------------------0
--------------------------
--------------------------
--------------------------
--------------------------
--------------------------
--0------------0-0--------
-------00-00------0-0-----
-----------------------0--
--------------------------
--------------------0---0-
--------------------------
--------------------------
-----0--------------------
---0----------------------
--------------------------
--------------0-----------
--------------------------
--------------------------
----------------0---------
--------------0-----------

Generation = 38, Population = 289.
8--8677+8-7----6-5---76673
---4+4+-7-9-97-3----+-2---
839---8--6-62-4--65-7--8-3
2-9335--269---11--343--2--
7-7744-564----7-9545--32++
-2----+----56--3--7------4
-----4----------4--9-41---
---4-7--439-3----2--43---2
7-6--3-+7-+---4-----7+-8--
---8----+-----38------9--6
-545457-86-7-78--35-5+4---
---231--4-55343862--3-4445
-3-66-45----81-+--5-377-28
-32--5-2-+-5--4675-5975+35
9---66--5---4-+6+18-64--83
0-791---4-5---1-262---2--5
52-68-6----8--+-85+--6--7-
-53-+---+885-9--5-6537+2--
-57--5+-------7--957-7-6--
3---2---2-5361235-2---253-
4-835-7----76--4-133-3--68
+3+-2-----+--5-593-19--371
7-------73----9--477-6++66

Generation = 76, Population = 263.
-+-+---+----9--+-++-+-+-9-
---++-+++++++--8-+-9+-+---
+-----+---+-8++-----+++++9
---6-9---------8----------
++----++---9-+----9-+--+++
+-+++--+++-+-----6+-++++59
---9+-++-+----++++-----++-
-+-----+-9-+-------+------
----++-+-++++-+-+-+--+--++
+--+++-+-+++--+-++--+++--+
++-++---+-+--+-+-+-5++-++-
-9---+-+---+-+-+-------+--
+-++++-+5-+-+-++++--+-++--
+-+----++-+-----+--++++-+-
+-8-++--+--88+------++-++-
-+-+-+---+-+---+-+-+-----+
-+-++++--++-++++++------++
+-9----+-+-9------+--+++--
--+--++4+-6++-+--+-+-+++--
-6-+---9---+-8---------+--
+9-9-++-++++--++--8++8-+--
+--+--+-+----9+-+9+--+--+-
-+-77+-+--++--++--++--+--+

Generation = 114, Population = 292.
+-+--+--+---+-+--++-+--+++
-+--++--+------+---+------
-+++++---+--+++++--+-++--+
8-+---++5-++-+8++++--+++--
+---++--+-++-+-++-+---+---
-++-+-+-+-++--++-+++-+-+++
++++-++++---+-++--+-+-+++-
++++-++++----+-++-++-+---9
++-+-++-+--+---------+++++
----+--+-+---+--++--+--++-
-+-+--++--------+--+-++-++
-+-+--+--+------+---9--+-+
++++++--9--++--+-++-+++++-
-----+--++---++++---+-+-+-
-+-++-+---+-+-++--+---+---
-+-+-+---+-----+-+-----+--
+++-+-+-+-++++-++--+-+----
-----+--++---++++---+-+-+-
+-----++++++-++--+-+++++-+
--+-+99++++-++-++-++++9++-
+---+++--++---++-++++-++-+
+++-----+--++-++-+-+++++-+
+----++-++--+++--+---+-+++

*** Life<FredkinCell> 46x40 ***

Generation = 0, Population = 20.
----------------------------------------
----------------------------------------
--------------------------------0-------
----------------------------------------
----------------------------------------
---------------------------0------------
----------------------------------------
----------------------------------------
----------------------------------------
---------------------------------------0
----------------------------------------
----------------------------------------
-------------------0--------0--------0--
-------------------------0--------------
----------------------------------------
--------0-------------------------------
----------------------------0-----------
----------------------------------------
--------------------------------0-------
----------------------------0-----------
----------------------------------------
---------------------------0------------
----------------------------------------
----------------------------------------
---------0------------------------------
----------------------------------------
----------------------------------------
----------------------------------------
-------------------------0--------------
---------------------0------------------
-----------------------0----------------
----------------------------------------
----------------------------------------
----------------------------------------
----------------------------------------
----------------------------------------
----------------------------------------
----------------------------0-----------
----------------------------------------
---------------------------------0------
----------------------------------------
----------------------------------------
----------------------------------------
-----------------------------0---0------
----------------------------------------
----------------------------------------

Generation = 11, Population = 566.
-----------------------0-----0-------0-0
-------------------0--0-------0-0---01--
------------------0100-0-0-0---0-0-0010-
-----------------002000---------0--10001
--------0-------0101010--0-0------1-0001
-------0-0------010201------0------00300
------0-0-0------00200-0-0-0-----0-0010-
-----0-0-0-0------010---0-------0---02--
------0-0-0--------0-------00--0--------
-------0-0-0--------0-----0---0----2----
--------0-0-0----0-0-0-----12----00-12--
---------0-0-0--0---0-0----0001-0001000-
0-------0-0-0-000----1-21-0-0-0--34-1214
-0---------0-00121--0-0--0-1-00201-2000-
--0-----0---0-000001------0-0-10-2110--1
---0---0-0---0-002-0--0-0--2-2--0--0----
--0---0-0-0-0-0-0-1010---0---------03--1
-0-----0-0-0---0-00-20--110-4-----00--0-
0-------0-0-----0----0103-2--0----1-----
---------0--------1-0--2-4130-2--02---1-
--------0-------01-----0-23-30-0-0-2-1-1
-0-----0-0------0----10-2--14-0-0-0-2-00
0-0---0-0-0-----01--0-0--1-0-----0-0-10-
-0-0-0-0-0-0---0-00--1000-----0-0-0-00--
--0-0-0-0-0---0-0-01000-0--200---0-0----
-0-0---0-0-----0---0---1--0040--000-----
0-0-----0----0------------0--1100210----
-0----------0-0----0-----01-2--00000----
-----------0-0-0--0-0----0--------0-0---
---------00-000-0--1----01---3-20-00----
--------0-000201---------00-0----0-0----
-------0-0-00100----------01---20-0-0---
------0-0-0-000-0----------00-010--0----
-------0-0-0---0---------0--0-00--------
--------0-0---------02--0-00-0-----00---
---------0---------0120--0010-----0110--
------------------000000-00100---0000-00
-----------------0121-22--000-0-1110-011
------------------00-2---0-0------0-000-
-------------------01--20-0---0-2-0011--
--------------------0-010----0---0-00--0
--------------------0-00--1-1-----0---0-
-------------------0-0------00----------
------------------0-0-----01-20---0---0-
-------------------0-0---000-000-0-----0
--------------------0-0-011---11--------

Generation = 22, Population = 633.
------------0-0102132111---------110-6--
---------0---0-----3----10---1-00--1-7--
---------00--11-2232-0--00-----10-10---6
-------0---0---3-----10--31--012-201----
-------1---00--20--11--04-1---1-21---3-3
-----0---2---0---2------00--2--00-------
---0-0---1--000--11------0025-0-1---1--1
-------0-0-1---0---4---1--00-11--0-2---1
-0-0-0-0--01--100------1-2-2212--3----1-
------00-1-1-1---0------23-443-0-2-3---0
---0-0-002---0--10---0-3-3-423-----12--0
----01--12-0-0---2-0--1---02-1-1---1----
-----103-2-2---33-11-5-7-612---3--4--4-8
--00--22--012------404--2---12---4-314-5
---0---0-0----0---1--0-3-0-20---0--21--3
0---00--2200220--30--210--0-2-0---00--01
-0---00-----4---1-1-5--0-1---2---02--12-
--0---00000130--1--12--2241-620-20-132--
---0-0--1-0---1-1-0---3--1-2-------0----
----0-000112--12--1--1131-241-3-4341-2-0
---0---1--0-1-0-1---3------1------0---1-
-----11-10--42--02---51-512--724351172--
-0---0------1-0---01-3---2--20------23-0
-----0-0--01--01-------100-15---1123-011
---0---0--------00-4-3-2--03--10---1-0-0
---0---100--31---------1--05--2----006-2
-0---2---1---2-0---1-1-001---2--02-1-0-1
-0---10--110---------2-1-4-13--0-----3-1
---0---1-----1-1-2---213-0-1---13300-6-0
---10--24--30------3---4-5--3----4---2--
-1---2---------1---1---0-0----0---3--1-1
-00--11--10-0-0------2----0--31----11---
---0-------------0---00-----3---2-0-0--0
---01--10-0-0-0--0------12-4----131---1-
-----1---0---------0----1-0---1-2-0---1-
-----00-0-0-0--02--0--01---4---65-0-32--
-----------0--------------0-2-0-0---0--0
------0-0-0---1---3------4-1-332-96----1
-----0---0---0-----------0--1-0---0-----
--------0---0--02----11--2-7---6410-22--
---0---0---0---0-------1---0----1-------
---------00--00--1-1-2-005---5--1-1---20
-----0---1---1-------2-------0----------
-------0----10-0-----1----25-510---22--0
-------0---0-------0-----------1--------
---------1-0---0-------1-6--11-2-----0-0

*** Life<FredkinCell> 27x42 ***

Generation = 0, Population = 26.
------------0---------0--------------0----
----------------------0-------------------
---------0--------------------------------
-------------------0--------------------0-
------------------------------------------
--------0---------------------------------
-0----------------------------------------
----------------------------------------0-
-----------------------0------------------
-----------------------------------0------
---------------0--------------------------
-----------------0-------------------0----
------------------------------------------
----------------------0-------------------
-----------------0--------0---------------
------------0-----------------------------
--------0---------------------------------
------------------------------------0-----
-------------------------------00---------
------------------------------------------
------------------------------------------
--------------------------------0--0------
------------------------------------------
--------------------0---------------------
------------------------------------------
------------------------------------------
------------------------------------------

Generation = 12, Population = 302.
0----1--144----12231----1020-----000-----0
0---0---1-2-0-2-1-3-------2---11--12---1--
----2----2-3424--3-32071--2--03------0-2--
-------0----11-------2------1--0-0--2----0
-0--10--1---2223----0-21-----100-----3-1--
--0-0---1---4-2-----0-1----0--0----11----1
-----0-13------1120--051--1---0010-------1
--------10-0----02-------0-000-------2-11-
----1---11-13---1-02------20-----2-0-----0
0-------0-----1-0-1----0--1---11---1-0-24-
-0-0-------003---502--0--11-2-----0012----
----01------13-3-----1-2-0---0--10-2-----2
1-------0---1--21-----22-------0-----0----
----0-----2-0-----1---0---20---1--23---021
-1-----0-2---011-----22-2----2314-----111-
0-------10-------2-1-----0---0------22-2--
--0-1-------1------01------0--------------
--------1-----1-------1----1--01---30--1-0
-1-------0-0-----11-1----4304-----203---13
----0--------1------10------3----0------22
0-------0-------0------2------------------
------------------1-0--1--1----10----2-1--
-------------0-0-----0111-----203------11-
----------------00--------------3----1----
----0-------0------------------22---------
----------------------0-0--10--1---2---1-0
--------0--------0--------000------10-----

Generation = 24, Population = 289.
-2--6--4-75---5-344-5----3---6+---4-4-6---
6-----5-7----------3----5---5---04----5-3-
-2-----------5-5-5-----24------9-3-----50-
-0-------7-3----36-335--11-425-513-762-631
-----4-2-5-------------2-4-----41---------
0-------------6-0-------3-------1---4---2-
-13--00-623-5--2-9----9--23-1----1---31---
--3---------5---5-------------------------
--1--3--43--6--5-3---16-0-3-0---------0---
1-----1----1----4---3----2-3-------13-2--3
-----1---5-----20------2-1-----63---12-1--
---1-4---3-2-6---3-5---854-202--4--523-653
-4-------------4-4-------------53---------
1-----0-7-------1--3----5-------25----3---
-62-43--47---23--45-4--1-1---24--------1-1
----------3-------------0-----------------
51--4--3--------73--6--3--5--13-7---------
--------4---5-2----4--9----10-1--5-4-----3
-1-----33------6-4-----43---65-4-------33-
-1---------2-------4-2-----3---141--4---3-
---------3-----3-------45--------------24-
0-----2-2--1----2-------32-3-------2--1--2
02---2---23-4---15----35--3------4---2----
--------------------------------5---------
-0----0-22--3--0--0---1-52-----4--3--0----
--------2-----0-1--21-3----1--3--4-6-----2
-------0-1-----00------0-------61---32----

Generation = 36, Population = 287.
-2--7----9-14-6----6-68---5----7+-7-6---33
----6---9---7---------5---6-+-366-44---67-
-----4---------7-99------2---49--4---2-75-
----0--3----4--66---3--------7-------4----
-----5-4+------7-21-------35158----61---0-
---4----5--------65---5---3---2-4---7-----
----2-------7--2-----6---8---0---2-------4
----51--7--6-1-364------2--------5-2-3----
---6-------2-4-6-----49--2----4--4--------
-------26----2----2--56---3-4-64---35--68-
----2------7-+-----4---7--3--7-----5-----4
-3------8--379---+3554---------9-5-----9-5
-4-----6---4-------8--6----417-----36---2-
---1----+---8---16--------6----3--+8---26-
----9---6+--4--8-7-146+----1--79-----3-4--
-----4--7----0626--5--7------------5----5-
-6---1---4---5----5--68---6---789---6---5-
---13------------81---+---6---4-----5-----
--3-----7---53--65----8-596--------1-+----
----------3-63-7--0--5-3--------42--4----3
-----2-----587---8-0------4----------5--5-
--3----4-----4----7--3--7-3----6-------8--
2-------26------2-2786----62-----6-------3
------4-------3--5-6--------3--------5----
-4---3--4------13-2-------3------5-------2
4--13---4---1----43-7-----2--------9------
-0---2-------3---------2------------------

Generation = 48, Population = 264.
-7+-+-+-+9---59--7---8++----+--8--+3--9-6-
----+-9-------6----7--+-+-----7--5-8--+---
3----7---------+----66---3-5---+8----9----
--64-+3------+-+-+-+----3--+6-----------6-
---------8-----+4-------------------3-----
2-----3-----------------+---5---------5---
------4+----88--------+81-+--2-----9-5-7--
----6-5-+-8---------5---5-------+---6---8-
-------++-5-+4--------+8-----8-------4-2--
-3----8-+--5----7---------------------8-+-
---------8-----------8---------+8---------
--------+7-+7------8---------+---6--------
---------+-----95----3---------+----96---2
------5-------8----87-+-8-----8--+-+--8---
-----667+---8--+--+36-+-8----++--8---5-74-
----------6-----------------4---8-1-----+-
-9---67-8-5-78-6-8+---+99---8-+--6---35-8-
---5----9-5------+----+-2-----+-------6---
----95---5----89+----+--------------9+---7
-6-3----8--++----7-+-5--+---+--4---+-6--5-
5----5--------------78---7------8---------
-5----6-4--+--6-----------------------4-8-
-95---427--------7---++---9-46-+-9----598-
----5---8---5---8-2-2---5-7-7-------7-----
--3-2-676------------7-8----98-+---9--2---
---3----+--------+----+-+-----5-4---+-6---
-----2-------------------6-----+8----4----

Generation = 60, Population = 538.
8+--+------88+-+--++++--9899-+-+--+595----
-----2+-+-+---8-----48---6--+79-9---+-+---
7+68-8-+-96--+++8+--8++99--84--+-6-+------
-+-8-+-9--4--+---+-----93--+---+-+1--9-8--
96-53---+-+6-+--76-+--6--+---+-++78---7+-6
567-95---38-+---+++-8----++---+-96-+--+---
-7+6---+--+--++-9-++7--92--+6---7-7-9--8--
-9-+-471---+-66---7-85+4----6518-+----5-+4
--3-+67-+--5+-6+-8-+-+-+5---7+67-+-9-564-2
--5-699-+++---5------+--+59--7+8+----+9+--
--0--------+-+6--+6-3+8-6-5-+-+--8--9+5-7+
-66----+--7+++6+5+3+---++--+-+-+9-6+++--+-
3+75--6+-+3-------8++7-+++7-5----88--+4--4
4-------+-+---+-+----8---+---+--9+-+--+---
3++4-9+--------+--+8-+-+++-9-+++-++--7---7
+--8--+-+6+3+-+688-+7--3----97-5+8-+------
+++7-8+++-7-+++-+---+---+9-+-++++-69-6----
6---91---+-------+3-7---4++-5++--+5++-7-+-
+947-++7-77--5-+--7-----+------+-++5-+--+-
-86--+53--7-++-969-+-+--+6-6+----8-----+--
-63--+4-5++++-7--+-09--+---6+7---+-+6+-+--
-99-+8---+9---8-----9+------9+-++---++-+--
-++-84+5-+---5---85-+++++9--6-++--663-7++-
--6--67--4-+-5------7--477---3---9-------3
-7-4+++--++--5--8-8+8+--+-----9++-6----++-
5---65--+-----4-+---+-+-+76--5---+6+--9---
85---6-4+7-8-75458-52-8-677-38+--+54+9666+

Generation = 72, Population = 263.
++---+++-+-----++--+-----------++8--+--+--
+-----+-+---+7--+-----+-------+-+--------8
---8-9-+-----------+-----------++----+-+--
-+-9-+----4+--++-+8---5---5+-+6-8+-+++---+
-+---------+---+-8-------------+----------
----+---------------9-+---------+-----+---
5--9----+9-+--+---+-+--+---+-69+----+---9-
----+---+-+---+-----------6---6---5-----+-
-+--+9--++--+-++6---+----7---+-+--6--+-87-
+----+--+----------9-+----+-+-+----+------
---------+++-+---+-----+7----++---------8-
-7-3---+---------+5+--++---+---+++--++--++
---------+--------------------------------
5-----+-+-+-++--+-----+-+-------+---+---9+
--+7-+---+-9-------+--++----7--+--------+-
------------+---+-7-9-+---+-+---+---+-----
-+--+-------+--+----+----------+-----898--
------+------+----6-------------+-8+-----8
-+8--+-9-8-------+9---+--------------+++--
---4-----+-----+---+---------+----------+-
-------------------------------++---------
7-+--+--+-----9---+7-++-------9----++-+-+-
-+-7+---++--------7------9--------8-4--+--
+---+-+-------------8-------+-----6-----9-
9-----------+---9+-----+--+---+-----------
----------+--47-------+-+-6-+-9----+-----5
---------86----7-------78-----++-------76-

Generation = 84, Population = 554.
+++----+-++++-+-+++++++-++++---++-+6-8+++-
+-+---+-+-----+++--+5-+9+-+-++---+--+++---
-+7-+++++++-----+-+--++-------++---+++7---
-++--+---+8+---+--++--8-67-+-+7-++--++-++-
-+685++4++---++-9+7+--99+-9+8-+--+++-+8---
-9------+-+++-+-+-+++---+---+++-++-++-+--+
6-+-+9-+++-+++++-++--++-4-+--8-+-+++++-+-+
--+++-+--6++-8++++-+-9-+--96-++-++-----6--
7---+-9-+--6+---+-+-+-+++++7+-8++-8+-+---8
++---++5-------7---9----+8+---++----+++---
5-6+--6+++---+-+----8-+--++----+--++++6--+
-+--+-------+-++--8+++--+++-+--++--+--6+++
6+---------+++9--+---8++++--6+-+--8-++-7+-
-+----+-+--5-+-+--+++-+++--++-+-++--+++--+
-++--+++-+---9-+6+-+---+-++-+++-++--+---+-
++-++----9+6--+--+-+-++88---+++--+-+-++-++
++++-++----+++----+---+-+--+-+++--+++-+-++
7+------++-+--97-+++------+-8-+-++-++9-9-+
-+-----9++++-+----+--+---++-----+----+--++
4-+---+-+------+7+6----+-98+-+-----+7--+--
++7+5--+---++--+-+-3--++9+-9+------++++++-
-++--+-+--+----+----+----+9----+-79--+----
-+--+7+--+-+-+--6-9--+++-++--++++++-9-9--+
----+-+---+---6---7++5----+---+7-+--+-7-+9
+-+-++-+-+--+-----+-9-----+-+-+--+--+---+7
+49-+-+-+7-938-8-+++--+-+-95--+--+--++-8-7
---8+99-++7+-+---+--6---+-887-+-++-9----+-

Generation = 96, Population = 281.
--+--+-+----+--+-++---+---++--+-++---+--+-
---6----+-+-++---+---------+-------++---+-
---------------+---+-+---------++----+---+
-----+---+---+-+-+-----------++---5+-+----
---------++----+-----+--------+-+--------8
+-------------+---+---+---+-----+---+---9-
----++-+---+++-+--+----+--+--+---+-+----+-
+-----------------+-----------+-----------
-+-+++-++----+-+-++---+---+--++--+--+--+--
+--++-----+--+--++----+--9-+----+--+---++-
7----+---------+----+----+-----------+---+
---+-+-++--+++---+-+-----+-------+-+---++-
-----+----+----+--------------+-+----+----
+--+----+---+++--+--+-----++--+-+--++---+-
-+--+--++----+--+-----++--++-++--+-+++-+--
--+-------+---------+-----------+-6-------
++-++--+----+----+++---+--+--+------++-++-
+--++---+---+---++--------+---+-+--+--+-+-
+--------+-----+----+-+--------------+---+
-+-6-+-------+---+9---+--+---------+-+-+-+
-----+---+-+---+----------------+----+----
---8---------+---+--+----+-9--+----++--++-
+---+-------++-+------++-++-------++-+-++-
----------+-+---------+-------+---------+-
++------+---+--+-+-+-----++-------+--+----
---9+---+---7---++--+---------+----+----+-
+--------+-+---+----96---------+----------

Generation = 108, Population = 555.
++++++--+-+++-+------++-+--+-+-++++-+--+-+
++--+--+++-+-+--++-+---++++-+-+---++++----
-+++++++-++-+--+--+-++-+--++---+++++--+---
-++-+-+----+++--+++-7+----++-+-++-+-+--++-
+---+---++++-+--++++-++++--+-+-----+---+--
---++-9-------+-------+--++---++++-+-+-++-
-+-+++-++-++++++++--+--+----+-++-+--+++---
--+---+-+-++---+----++++++-7++-++-+--+-++-
++-+--9+--+-+---+-+++---++-+++----++-++--+
-+----+--+-+-++--+-+-+-+-++++--+-++++-+++-
-++--+--+-----+--+++++-+++---++-+-+-+-+--+
-++---++----+++++-+---++---+--+-----+--++-
--++7-+++---+-+++--+-+-----+++++--++--9-++
-++-+--++-+-+-+-++-+--++--+-+--++++-+---++
-+-++-+++++---+-+-+++-+-+++-+++-----+--++-
++++--+6--+-+7+-++------+6-++-+---7-+--9+-
-++-------+++-++++-++----+--+++--++--++-+-
+-+++7---++--+-+-+--+-+-++-----++++---+-++
+-+++-+-+----+-+++-++++--+-++-++-++---+-++
8-+7+++-++++---+++------+--+++++---+--++-+
------5+--+---++---++---+-+-+-+-+-++++-+--
+++--++-+---------+-+--+++-++-++-+-+-----+
-+-+--+--+---+-++--+--+-+-+-++--+--++----+
++---+-8+---+---+-++-8+---++-6-++++-+++-++
++---++--+-++---+++-++-+--++++-++--+---+--
--+-+-+-++---+++--+++9+--++---++++----+-++
-++-++--+-+-++++-+--------+++------+------

Generation = 120, Population = 491.
----+--+++--+-+---++++-+--+-++-+++----+++-
+-++-++--+--+----+-+--++----+----+-+-++---
-+++--++-++++++---++--++--++-+-------+----
+++++---++--++--+--+7+----++-+++++--+---++
-++-+----+++--++--++-+-+-+++-+----++-+----
--+-+-+-+-+-+-+-+---+-+-+-------+---+-+---
-++++---++-+++-+--+-+-+--+++---+++----+-+-
--+---+---+---+-+-+-+-+-+-+---+-+-+-+-+-+-
+----++--++-+--++-+--+-++-+--+-+-++----+-+
+-8++----+--+++++++-----+----+-++---+--+--
+---+-+---++--++-+++++++-+----++++-----+--
+-+-+-+-+-+-+-----+---+--++---++--+---+++-
--+-9+----+---+---++-+----++-+-+-+++---9-+
+-++-+--+++-+----++++--+----+---++++-+----
+++-+---+--++---+--+----++---+-+--+++--+--
----+-+-+---+---+---+-------------+-+---+-
+++---+-+++-+--++-+----++++-+--+--++--+-++
++---9+-+--+----+--++--6-++----+++-+-+++--
+++---+-+---+-++-+----++++-++-+--+----++++
+++-+++--+---+---+---++--+++-++---+--+-+-+
--+---9---+-+-++--+---+---++---+-+-+-+-+--
+--++----++--+++-+----------++-++-----+++-
++--+++-+-+-++++++++-+--+--++--------+++-+
----+-+-+-+-------+-+-+-----+-----+---+---
+++----+--+---+-+-+--+++--++-++-++++-++---
+++--+-----+-------+--+9++--+-++-++++++++-
+---++++--+---+---+-+++--+----++++---+-+-+

Generation = 132, Population = 272.
-+--+--+-+--+++++----+----+---+--++-------
--------------+-+---+---+-+-----+-+-+---+-
---+-+--+--------++-+--+--+--++-----++-+-+
----+-+------+---+-+8+---+-+-----+------++
-+-+-+--+--+------+-+-----+-+-+-----------
-----+-5+---------+-+-+-------+-----+-+---
-------------------+-----+------++-+-+-+-+
---++++---------++-+-+--++----------++----
-+---+---+---+-------+-+------------------
-+-++----+-++-----+-+-+-----------+-------
------------+-+-+----+++-+---+-+-----+-+-+
+++----+-+-----+---+-+-+---++++-----+-----
-+---+------++---+-+--+---------+-+--+----
----+++++-----+-+-+-----+-+-----+--+------
-----------++---+--+++---++--+---+-------+
---+-+----------+------+-++-----+-+-------
--------++------+-+-------+-+-++++--+-+--+
+-+--+-++-----------+-+---+-+--+-------+--
-+--+-+++------++-----++-+-----------+----
------------+--+------++----+-+-----+-----
------------+----+----++--+++---+-++++----
-+-++----+-+--+-------------------------+-
-+--++--+-+++--+--------------------------
--------+---------++----+-+---------+-----
-------------+-+---+-++----+--+++---------
-----+-+--+-------+---+---+----+---++--+--
-+------+--+-----+-+---+--+---------------

Generation = 144, Population = 251.
-++-+-+--++++---+--+-+-+++------++--+-+-+-
--+---------------+---------------+++-+---
--------++++----++-----------------++-----
-+-+---+----+-+-+-+--+-+-+-----+-+---+-+--
-------------------------+-+----+---------
--------+-+-------+---------------+-+-----
-------++--------+-+---+-+-+-+---------+--
+-+-+---------+-+-+---+-+---+-------+-----
-+-+---------+------------+------+-+---+-+
------++-+-----------++++---------++------
---------+-+------------------------------
+-++---+---+-----+-+---++---+------+-+-+-+
-----+---------+---------+------++--------
--+-+-+-----------+-+-------------++--+---
--++-+++++--------+-++-+-------++-----++-+
----+---------+-----+-+-------------+-+---
-+++-++---------++--++----+---++--+-+-+---
-----++++-------+-++-------------+--+-+---
---++-+-----------------+-++---+-+--------
+-++-------------+-+-+-++---+------+-+--+-
--------+-++----+-------------------++----
------++-+----------++++--+-------++------
------+-----++---+----+++-------+-+--+-+-+
+---+-+-----------------+---+-+-----+-+-+-
-------+--+-+-+-++-+--++-+-------+---+-+--
-----++++---------+++-+----------+----+---
---------+---------------+-+---+----------

*** Life<FredkinCell> 8x34 ***

Generation = 0, Population = 19.
------------------0---------------
------------------------------0---
--0----0----0---------------------
------------0-0-------------------
-----------0---------------------0
--00-------0---------------------0
-------------------------0--------
-00---------------0-00------------

Generation = 71, Population = 137.
----9+++--++-+-9-989+-++-+---+-++-
--++----+++++---+-+7--++--+-+-----
--+--++8+----8-++--+-+--++-9---8--
-+++-----++---+7+7++-+--+----++++-
+-+-+-8+--+++--+-+++-+-+9+9+--6+7-
-8+--+---++--+--++--+--+++-+++----
+-++-+-+-++-++---+-+8-8--+6--+7--+
--++-++-+----+++-++++--++--+-+++++

Generation = 142, Population = 138.
-+---+--+-++--++-+-++-++--+-+++-++
+-----+-+++-+-+---+++-+-++++++-+-+
++++-+-+-+----+-++-+----++-+-+---+
+-+++-++--+---+--++--+-+++----+--+
+---++---++++-+--+--+---+--+--+-++
+-++---++--++---+++++++-+--+++--+-
++-+--+--++++-++-+++---+--+---+++-
---++-----+-++-++++-++-+--+++++---

*** Life<FredkinCell> 40x39 ***

Generation = 0, Population = 16.
---------------------------------------
---------------------------------------
---------------------------------------
---------------------------------------
---------------------------------------
---------------------------------------
---------------------------------------
---------------------------------------
---------------------------------------
---------------------------------------
---------------------------------------
---0---------------------------0-------
---------------------------------------
--------------------------------0------
-------0-------------------------------
----------------------0-0--------------
---------------------------------------
----0----------------0-----------------
---------------------------------------
---------------------------------------
---------------------------------------
---------------------------------------
----------------------0----------------
---------------------------------------
---------------0-----------------------
-------0-------------------------------
------------0------------------------0-
---------------------------------------
---------------------------------------
---------------------------------------
---------------------------------------
---------------------------------------
---------------------------------------
---------------------------------------
------------------0--------------------
---------------------------------------
---------------------------------------
------------------0--------------------
---------------------------------------
-------------0-------------------------

Generation = 33, Population = 199.
---------------------------------------
------------------1--------------------
-----------------0-0-------------------
------------3-----0------------------3-
-------2---1-1----1-----------------0-0
------2-1---0--5-2-0-----------------2-
-------1-----12-2-2--------------------
------------1-03------5----------------
---------------------5-2---------------
------------0-2-------3----------------
-------------0-6--2--------4-------1---
--------------5-83-1------7-4-----4-2--
0---2---------05--3--0-----3-------2---
-1-2-3-------2-3--3-6-72---------------
0---0-0-2-----4--3-5-33-4--------------
-----3-1-4--------4----1---------------
---------3---------------12-----0---1--
-------03-6-------------5451---3-4-1-2-
---0-----1---------------44----41---2--
--4-1-------------------------5-3------
---1---------------------------3-------
--------1---3-----------3------------1-
---------2-3-1---------4-2----------2-1
------3-----3-----------3------3-----1-
-------0---------------3------2-1------
-----3---5--------8-----3------8--3----
----4-5-4-4------1-3-4-----------3-4---
-----2---2--------6---1-----------1----
---------------------------------------
---------------------------------------
----2----------------3-----------------
---4-0--------------4-2----------------
----3----------------30-1--------------
-------2----4--------6---3--1----------
------6-1--2-1--------3-2--0-0--4------
-------3----3---------------0--1-4-----
---1--------2---------------1--00------
--3-9------1-8-------------2-43-3------
---1--------3----0----------2--2-2-----
----------------3-2-------------2-4----

*** Life<FredkinCell> 43x13 ***

Generation = 0, Population = 19.
-------------
-------0-----
-------------
-------------
-------------
-----0-------
----------0--
-------------
-----------0-
------------0
-------------
-------0-----
-------------
-------------
0------------
-------------
-------0-----
-------------
-------------
-------------
-------------
-------------
-------------
----0--------
-------------
---------0---
-------------
-------------
-------------
-------------
-------------
----0--------
-------------
---------0---
-------------
-------------
----0------0-
---0--------0
---------0---
-------------
------------0
-------------
-0-----------

Generation = 175, Population = 279.
+-++-++--+-++
++++-++--+-+-
+--++++++--++
+-++--+++++--
+-+-----+-+++
+-+-+++-+--++
--------++--+
---+-+-++--+-
+-+---+++----
-+----+-+--++
-+----+++-+-+
+--+-+-+---+-
--++--+------
--+----++--+-
-++----++-+++
-+-+++--++-+-
++-++++--++++
---+++-+++-++
-+--+++--+++-
+-+-+-+----+-
-+-++++--+-++
---++++-+-+--
++----+----+-
++-+-+++++--+
-----+---+---
-++-----+---+
-+-++++++-+-+
-9+++8-++---+
+---+-++-++++
--++----++++-
----+---+-+++
++-++-+-----+
-++++-++-----
+----+++++-+-
++--+--++++--
---+--+++---+
++++-++---++-
++++-+-++-+++
-+++--+++--++
-+++--++--+-+
--+-+++-+++++
++---++--++--
-+++--------+

*** Life<FredkinCell> 49x38 ***

Generation = 0, Population = 24.
--------------------------------------
--------------------------------------
--------------------------------------
---------0----------------------------
--------------------------------------
--------------------------------------
---0--------------------0------0------
--------------------------------------
-----------------0--------------------
---0----------------------------------
---------------------0----------------
--------------------------------------
-----------0------------0-------------
--------------------------------------
-----------------------------------0--
--------------------------------------
------------------------0-------------
--------------------------------------
---------0----------------------------
--------------------------------------
--------------------------------------
--------------------------------------
--------------------------------------
--------------------------------------
--------------------------------------
--------------------------------------
--------------------------------------
--------------------------------------
-------------------------0------------
--------------------------------------
--------------------------------------
--------------------------------------
--------------------------------------
------------------------0-------------
---------------0---------0------------
-----------------------------------0--
------------------------0-------------
--------------------------------------
-----------------------------------0--
------------------------------------0-
--------------------------------------
--------------------------------------
-0------------------------------------
--------------------------------------
-----------------------------0--------
----------0---------------------------
--------------------------------------
--------------------------------------
------------------------------------0-

Generation = 40, Population = 288.
------0-------------4-----------------
----------------1----------0----0--1--
-4-----7-6--------------+-------------
-------------3-------2-------3--------
------0--8-----23--73--------4--33----
----------1-------------2-------------
2--+-3---9--3-6----8-7--7---5------8--
----------------------------2---0-----
-----73------------765--------------3-
-------------------2----1--1-----1-2--
-5---+---+-5-----8---3--+------7---98-
---------------------1----------------
32---------42-6--+------87-98------6-6
--02------1-------2-------------------
-0-7--2----1-0--1---5------9-2--0-----
------------------------------------4-
75-+--------344---------+------85+----
---------------------------1-------3--
-7-9-----1---2--5--6---8---324---9----
---------2--------------------------0-
-----52--5---1------6------------3-+--
--01------01------3-------------------
---9-----------------7---9-----------6
-----------------------------------3--
---9-12--+-3---33---4--4-+------2--944
------0-------------4---3-------------
-----3-----2---5---5-2--+----4-----57-
-0-4-------------3----------3---3-----
-2----1----2-4------66-----------9----
---3------2---------------------------
---------7------44------3+---4-82-----
----1---3------------------3-----7----
-4-2---5---------------78------5-4----
1--2--------4-4-3-----------4---5-----
-2-----2---5-4---------8---4-6---+---5
---5-----6-2------------------------8-
13---3-----93-87---7----7---3------+--
--------------------4-------------2---
-3--------------2------78-------34-8-5
3-2---------2---8------------------5--
----3---2------2--------8-------------
---2--2----2--------3---7-------------
----33--54---0-2---4-6--9+---------3-2
---4----------------------------------
---4-734-3------5--74--8--------3--9--
------------3-------2-----5-3---------
-1-------6-1---4---------4-4---8-4----
----1---0-----------------------------
231---------6--------7-------9--71----

Generation = 80, Population = 287.
--------5-+----------+-----+---7---6--
--------6-9-------------------------+-
-8-+------8--------+---++----8------+-
-------5---7-------84---5------------+
-+-----+------------------------------
---------7+------+--------------------
---+++---+-+-+-+-+------+98----8---+--
------------------------------------9-
-9-------+7+-+-8---+-+---+---+-----+--
-9-+85-------------------+9------9----
-------+---------+-+---+++------------
---9-------------------+-----------77-
---++----8-+-8-+-+--+----+6----+-----+
--------------------------------------
-----7-----6---6----+----+-------+---+
---------9----------------------------
----++---------+--------+-4-----------
----9-----9-------------2-0-----------
-+-----++----7-----+-----+---+-+---++-
---+-----------------8-3---4--------7-
----------7--3---+-6-----9------------
--------------------------------------
-+-+----++5----------+---+-----8----+-
---------7----------8-7-+-2-----------
---+-6-------------+-----+---9-9-----+
---------577-----3-5------------------
-+-+---96--+---+--------+------+-+-++-
-------------------9-----4------------
-+-8----9-8+-----+-+-+-+-+-+-+-+-+-+--
--++----9---------------+-----------+-
------------------------+--9--------+-
-----4-------------------+------------
---------+++----------6-+-+--------+--
----+-----5---------------4-----------
---------+-+-----+---85---8+-+-+------
-----+-----7---------------------+---4
-+--+----------------+--+-+--------+--
--8+--------------------8-------------
-----+---+-----5-+------+------------8
-----77---+--------------+--------7-9-
---9-------8---+-----7--+------+---9--
---8----------------------------------
---7----+--7---+-5-+----+--9-+-+----+-
---------6------------9---9--------9--
-9-+-+-----+---8-+---+--+--------+---9
--------+--49-----65----+-----------+-
-----+--6-6-------------------------98
---------6-----------2-----5----------
-6-+--2-5-9+-------+-------9-+----9-++

Generation = 120, Population = 873.
-++-+++-+-+-+-----++-+-+-+-++-----++-+
-2-+-8---+-++78-+++-++--++--+68-+++-++
++--++++--++++---+-+++-++--+-+++---+-+
7-+-+-7-+-9-+-+-+-7-+-6-+-6-+--++---+-
+-+--++-++-++--++--+--++-+-+++--+--+-+
-+-+-5--9+++-+--6+-++++-+++-9+--++-++-
+-+-+--+++-+-++-+++-+--+--+--+-+-+--+-
-------------9------------++--4--+-+--
+++-++-++---++-+---++--+-++--+-+-+++--
-+-++++--+--++---+--++8-+++-++-99-9-++
-+9+++---+--+-++--+++------+-+---+---+
+-+-+-6-7-+-7-7-++8-7--++---+-79+-+-+-
++-+++------+--+++-++---+--+---+------
++8+-+--++-+-9--++++-+---+--9---6+-++-
7-9---+-+++-+--++----+9+--+++---+----+
-----8------------67-57--8-8-----+++--
+---++-+-+-+++--++-+++-++-++------+--+
+++-++---+--+++--+--++----+-+2--+-8-++
++8+++---++++---------+--++++-+-------
9-+-+-9-+++-8--+7---+-9++6+-7---7-+--+
+++++--+++-++9------+-++-----+-----+-+
++-++++-++++-9---9----+-++-------+--+-
+---7-+++++--+++--+++---+-+--+++-+8++-
-+--------++-72--+-+-----+++-4---+++--
3+2+--++++-+++-+++++---+---++--+++9---
-+7-+++-++--++----+-++------9+----4-+-
-++++-+-+-7+-+-+--+++-+----+-+9---+++-
6++-+--96---+-+7++8-+---+-+--+-9-++-+-
--+-+++-+++++-++------------+++--+--++
++++-++--+--+---++-------8----+-+---+-
++8--+++-+-++-9-++---+++-++++---++-+++
--+7-++--+-+-----+++-+---+++-----+9+-+
9+--+++--+-+7++----++--++-+----+------
67--+8----+-+7--+---++----9-+---------
++++-+-+--+++---+-+----+-+++++--++++-+
----+++++++-+---+-+--+-+-++-+---+-++-6
+++-+-+-6+++--+-++++++++-+--+--++---+-
-+--+---++----9--+--+---+---+---+-----
---+++++++---+++---++-+-+-++++-+++-++-
+9--+-----++-+---+++-----+++-+-9-++++-
-+--+-++----+-+-----+++----------+-+-+
-----+--+---+7----+-+-----------------
-+--++--++++---+-+++++++-+----++-+8+++
+6+-------+--8-+-++-+---+-++-+-6-++++-
-+-+--+-+++-++++++9++-+++-+++--++---+-
---------+--+---+---+-+-----+-+-----+-
++-+---+-+-++-+++-+++--++-+++-+-+-++++
--+--+---++-------++-9-+-+++8---+7++-+
-++---------+-++---+--+9-++++-+--+-+--

*** Life<FredkinCell> 4x3 ***

Generation = 0, Population = 11.
000
000
-00
000

Generation = 10, Population = 6.
34-
---
4--
244

*** Life<FredkinCell> 13x12 ***

Generation = 0, Population = 21.
-0------0---
-0-0--------
-----0------
---00-0-----
----0-------
-------0----
0---0-------
------------
-----0------
0--0--------
--------0--0
----------0-
00--------0-

Generation = 13, Population = 74.
15322----32-
-4----1--213
-3-254----3-
42-4----4-1-
-----53-----
34-3-47--21-
-----+--005-
-00722--0--3
--2--2-07-2-
-----3-0---1
43-1--34---0
-0676241603-
265--050-57-

Generation = 26, Population = 78.
6+---3637---
7-4-6-3---1-
5-5--934---1
-4--54--7-6-
-87279565754
++--37+76-27
-51-2+---474
--6----41-67
--7--2----23
-----+6--2--
76--9---58-7
---+7-648-83
-+--6--3---7

Generation = 39, Population = 82.
----+-+---95
----9+-95--8
9--8++-97---
-76---8+9-9+
-+---+--5-77
++76--+9-7-+
68--6+-5-9+7
-7++---+----
8---97-9-85-
-6+-4+-95--+
++--+89-5-8-
+4+++-+7---6
7--9+6-+29--

*** Life<FredkinCell> 8x36 ***

Generation = 0, Population = 25.
--00-----------------0-------0------
--0--------------------------0---0--
---------------------0-----0--------
--0-----0-0------0--00--------------
---------0--------------------------
-------------0--0--------------00---
-------------0----------------0--0--
0----------------0------------------

Generation = 69, Population = 140.
-+9-+-++-+-+--7-+----++++-+++--+6-++
--+8+++-----+++++-+--+---++-++++-++-
-+-+-+-+----+---7+-+5+7--+--6+-+---+
-+-+7---++------++-9-+-+--+-----+--+
---+-++++++----+1+8---------8++++---
++++-+-+----8+---++--+-++--+++--+++-
--++-+----+--+++--+++++--+-+++++8-5+
+-+--+--+---+-+-++----+--+----+++-7+

Generation = 138, Population = 141.
-+++---+++++++++++-++++---+++---+--+
+------++-+---+--+-++------+-+-+++--
---++-++++-+-+++---+++-----++---+-++
-+-++-+-++-+--+--++---+-+++---++-+--
+-+--+--------+++-+-++-+++--++-+----
-+-+++-+++-+--+-+++++++--+--+-++-++-
+-+-+------++-+---+---+-+--++-+-+-+-
++-++-+++---+---+++------+-++++++-+-

*** Life<FredkinCell> 11x35 ***

Generation = 0, Population = 19.
------------------------------0----
---0---------0--------------0------
--------------0--------------------
----------0----0-------------------
-----------------------------------
------------------------0----------
--------------------------------0--
--------------------------------0--
----------0--0---0---------------0-
-----00----------------------------
-----00----------0-----------------

Generation = 11, Population = 197.
-00--10-10----10--0-20-0-02---1-0--
0120213-1-2---010-0-2-0--0-0-------
00------103-----020-3---2-1-2---1-0
-0-02211-2-3-01---1-1--02100-0-0---
00-----1103--3211-2-00-0--0-0-0-1-1
01212----0--0-1-100--001--10--1050-
001-213--34-31-0-1-2-1---0-0-2---2-
1--1-2-00-1--2--120-0-10302020-0--5
0-3-252-16-3-23122-22001-102----4--
4--11321-24-----1-000---10--20----0
-113-3--0--------0-00-0-0----21-41-

Generation = 22, Population = 192.
-01---31----1-4--2-----35-5251--325
-1--4-5---57452333-43--0-2133-3-5--
15-30--41----7-42424-4129-----7--41
134------32--12---1-2--0--3--02--1-
--04-445-2613-5-2-4--13----1-2-3---
-2344-3-6--4-8405312-4315---5-5---4
----68-2--42-3-11-----8----0---1-52
---2-52--3-1-32-4--0--6-31------40-
--5-48-------7-3342-27--2544-4---43
--3--65-36-51-5-4--04-1---106--05--
2--5-72--25-42-1343-213-440013-27-4

Generation = 33, Population = 145.
-16--652--723-6-5+8-----83-3---2946
15-46--73788-+----2----0-5--9---93-
--1-1--7-------55-4-4---+--24------
---------3-5--4-3--1-12----4-1-----
---53-+8--7---735-6-0--0-----------
3-5--68---4-5--2-----------3-56--0-
75-3--92-6-395--2-7---------98-1--2
3-----42--3---------42---1--5--19--
--705-------5++-5-744+1-2+944------
-37-3+------3----5--8-----40+1506-3
---5--------5-23----3-54+-1-2--2--7

Generation = 44, Population = 144.
72--5-8-4----+7-+----6---88--------
5-6--7--6+-97+-9++59---3+--6+---+66
------+-87----6-8+6-6+4-+6---3---6-
6----------5--7-6-----3-8----------
----4-+---+-----7---0-7--75-464-+7-
----79++-4-+-+-3---8---2-246+--4---
--5-----9+-----------6------+-+----
--2-1----------2----6--1--6----1--+
8-7-5+8-8+7-6-+-8+9-6----++-9------
8-7--++9-----7-9579---838-7----1+-8
-+------957-744--+7--7--+8--7-5-+++

Generation = 55, Population = 199.
-4-6---7-++8+++4++-6----+--4+-+-+++
----++---++-9---+---+-75++59++--+--
7-38-6-989+2--8---7-9+---87589+6+9-
7-9565-6+656-8-578---846+-6694---45
+-388--9+8----+6-++-1---7+66------+
8--+-------+------3---+---7--++-+-+
-+--++-4--+-+9-3-+--+8+85-+2--+-977
6-3-2----984-7+--9-28------4586---+
+7--7-+4+++38-+--+-4---5------+6--8
--++-+--+-++-+-+-++8+++-+8++-995-5-
8+8------6--9---++7--784+9--9---+--

Generation = 66, Population = 153.
-----+--9-+8++-----8+---+------6-+-
-8+-++-+9++--+-+---+------9-----+-8
---9-6++--+--+++---5+-+-+--------9-
+---8---+9-88----+------+6--+---+-6
---+++-9+-+-8+-7+--5--9-8--------9-
-+++9+--+-7+--+--------2+-8---+-+-+
--+---+-++-++-+--++7-++---+--++7+--
+4---++------9+-8-----+-+-8-8-+---+
-9-1+----++5----8+-7+--5++-9+-+6++9
++++-+------+---+-----+-+-------+--
-+-9-+-+-----+-9--7--+-4-+-6-87-+--

Generation = 77, Population = 189.
--+9----+----++--++9-+-9+++-+-+8+-+
---++-+--+---+-++--+----+--++++--+8
-+----++---2-----+---+-8+8+---+-++-
-8+--6---+8-8---++--+++---9-+---+46
-+-++--++--4--+8+--7-9+39------7--+
++--++--++8+++--+---++--+49+++++--+
++-8++--+-----+4--+9+++8+---+-+-++-
---5-++-+---+++-+++-+2+---+4+8+-+-+
+++-++--+---9+++-----++---+-+------
+--+-+-+++-+--+-+---++-4+---+++-+5-
9-8-+-++---7+--9++-----6++--+-+6-++

Generation = 88, Population = 66.
+-------+-+--+---+--------------++-
--+--++---+------+------++-+-------
-----8+---------++------+----------
----------9---------+--9----+------
-----++-------+--+-----------------
---+-+-------++-------------+------
+-----+---+--+---+------------+--+-
+-----+-------------------------+--
-+---+-------+---+--++---+--+-+-+--
---+---------+-----------+--+---+6-
-------------++------+--++------++-

*** Life<FredkinCell> 15x18 ***

Generation = 0, Population = 13.
---0-------------0
0---------0---0---
------------------
------------------
------------------
------------------
0-----------------
----0----00-------
0--------0------0-
------------------
------------------
------------------
------------------
-----------------0
------------------

Generation = 85, Population = 123.
6---+-7-+---9-----
--+7+---+-9--2-4--
-+7----+--+374--98
---6+9---29--++4--
+++-88--9+++--+7--
--+9-++----+-++++-
-+-+++++-++++++--+
++---++++-++-++---
----+---+-+++---++
-+------+-+-++-+++
-+--5-8-++-+---8++
---69+---+5--+++--
-9-7---829-9+-8---
----8+1-----1+6--4
---6-+-+-------+--

*** Life<FredkinCell> 10x41 ***

Generation = 0, Population = 22.
--------0--0------0----------------------
--------------------------0--------------
---------0--------------------0----------
-----------------------------------------
-------------------0-------------0-------
-------------0-----------------------0---
-----------------------0---0----------0--
-0------0------------------0-------------
-------------------0-----0------0--------
-----------------0-0-----------0---------

Generation = 22, Population = 204.
2-86--8---5--137---5-2-764--6----961---0-
-41-3-403--4--4-1----43-0-2--63---233--0-
-4-232527--1---58-48-4--1-21--9-3--4--432
--------732-0-05-2-81220--45----0--2060--
17--2--3-------46---5-1-4-17-37-44--3-352
--143----3-3-----5-424--21-91--5------131
-3-334-6882--2-0138232-1554--2--2-22-1--2
237-5--69--3343--4383-4-0--4-33-14-7----0
---24-0--5-522--2+4-3--2--4--7355--4313-2
-513-2---5--20---2-30----62--201-6-1-2-3-

Generation = 44, Population = 177.
6-----+8-------+--+-85-+--98----+-+-+-+-+
---7--7-----++--68-----92---3+9-9--783-56
--765-----92----+3-+4---+-6-+---9-5-6---4
-+47-4-3---+-62---6-5666-8-+-+-966-6---+-
-+-9---7----9-4--8-++---86--6-+-----+---6
--77---48+-8---7-+-9766-64--7-2+1-1-3-4--
6--8+-+----+64-53-+4-6-+--+-+-7+---8-4---
5--878--+-8+--783--+--993--87-------47-4-
4--8-939+-6-5--7-----+---8---+--8------55
2+--46---+-7------8-1+--++6+5--77----7572

Generation = 66, Population = 139.
--+--++-+-++++--+--++-----+----+----+-+-+
----+---+----+------------+-------7--++--
9-----+--9--+---+9+-+9-+----+++9--++---+-
-+---+9-+--+---+-8------7+-+4----8-+4--+-
---+----+++9---8---+-+--++-++--++--7+9-+9
------+--------+-----+-+-+++9+-----------
-+---+------99--+---+-7+--++-+++-+++-8---
-7------++--+--+-+---+-+-++--++--+-+-----
----------+---+---7--+--7+--8+---8--+7--9
------7+++-+---+---+-----+-+86-+-----+---

Generation = 88, Population = 203.
--++---+-----++-+--+---++--+--+--+++----+
+++--+------+++++--++-+--++-9-+---+++-++-
+--+------++++-+--+++--+--9+-+-+++++---++
-+++------++--7-+-++---++-++++-++-4+7++-+
+-+++-6-+-+++--+-+-+--++---++-++++-+--++-
-+-9+++++--++-8+----+-++-+-+--++8--++++--
++8-+-----+------++---+++-----+----+---++
+--++-++++-++-++-+-+---++---+-++--+--+++-
-+-+----+---+---++++--++-+++--++--+--+-+-
---+-+++-+-+--9+--+-7-+--++-+-++++8+++--2

Generation = 110, Population = 195.
+--++++++-+--+------+-+-+--++--+--+-+---+
-+++-++-+-++--++--+------+-+++-+-----+++-
-+++-++-++++-++-+-+++-+++++-+-++-+-----+-
--+--+++--+-+------+++----++-----+-+--+++
+--+---+-+--+++-+++-+-++-+--++++-++-++-+-
+++---+-+--+--+----++--++-+-+--+-+-------
--+-++--++-+-++-+-++++-+-+---+----+-++-++
------+++-+-----+-++++++++-++++-----++--+
+-+---+++------+----+--++++--+-+----+-++-
+--+++--+++---+-+++-+--+-++++--++-+--+--+

*** Life<FredkinCell> 35x14 ***

Generation = 0, Population = 16.
-----------0--
--------------
--------------
------------0-
----0----0--0-
--------------
--------------
--------------
--------------
------------0-
--------------
0-------------
---------0----
--------------
--------------
---------0----
--------------
-----------0--
-------0------
--------------
--------------
---0----------
--0-----------
--------------
--------------
----------0---
--------------
--------------
--------------
------0-------
----0---------
--------------
--------------
--------------
--------------

Generation = 37, Population = 254.
--77656---848-
62432-5-4-4---
--54-6--3-7-7-
7--711----82-3
-49+6-+--+6++-
4-3355----8---
+-27--7-------
--94---45361--
33-2----4-----
-2+4-87--2-4+-
4---6----51---
----4-8-----64
4-6567--2-3+3-
----8707-878-0
--94585--52+--
5132-6856-632-
--49--4921---2
173-5--5---6-6
5--586--2+--84
3-66442-87493-
-3---+----3+8-
4-54-7-----88-
----5-9--2-64-
2-4-55842--6-5
-0----4-2--0+5
3------2--4+--
--6-94-1523--2
-29-+211447681
3-6------24-1-
7274-18---+---
---04176+9724-
632-3-7---1033
8--4523-4-3463
2-538-5----3-1
---2-6523--1-4

Generation = 74, Population = 218.
++++++-++----+
----6----++--5
------+---++-+
+-+++-+-+--5--
++++--+----+-+
--+-+-+---+7-4
++-+--+8---+--
9---+---+-+6-8
-9+-+----+-+++
+-+--+-9+8++--
+7-5++6++-9+-+
------+--+-+-+
+--+-++--+--+-
--+-++-+8-+-+-
-------+++--6+
--++9--+-++-+-
+-----+---+--+
5+-++---++++--
-+--+7-8---++-
--+-+++9+---+-
----------7++-
-+---++-------
+8---7--+6++9+
--69--+---98+-
---5-------++8
--+-++-+++++--
-+--+9-----7--
----+-+--++++5
---++--+5-+-88
-7+-+-+-++--+7
+-+------+----
+-9-7-+---46--
+-9-+-++8-+-+-
9++-++--7----7
+----+-8++--9-

Generation = 111, Population = 234.
+--++-++-----+
-+-+-++--+--+-
-++--++-+---+-
+-++++--++--+-
-+--+--+++++-+
-+++--+-+-+-+-
++-+---++++---
-9--++-+-++-++
--+-+---+---+-
-+++++---++--+
+---++++++++++
---++----+---+
+--+--++++++-+
-++---+++----+
-----+-+++-+--
+++-++-++----9
+++-+----+--+-
++---+--++++--
+-+++--+-++---
++++---+------
--+----+-++---
+--++++-------
-+++--+-+-++--
--++---+-+----
----+--+++----
-+++-++++++++-
-++++++--+----
+-+-++--+++++-
-+-++--++++--+
--+-++-+---+-+
+-+++-++-+----
+--+---+--6-++
++-+-+-++---+-
-++--+++++----
--++--++++----

Generation = 148, Population = 227.
-++-++++-+--+-
+--++-+-+----+
-+---------+++
+-----+-----+-
-+++--+---+--+
-+++-+++-+--++
----++-+--+--+
+-+-+-----+-+-
+-+-+--+----+-
--++--++-+-++-
++---++-+-+-++
+++++-+--+-+-+
---+++-------+
---+-+++++++++
-+-+-+--++++++
++--+---++-+--
-+--+++---+-+-
+--+-++++-+++-
----+----+--++
-+-++-+-+--+++
+++++++-+-++-+
-+---+++++++-+
-+------++----
+-+-+++------+
-------++-+-+-
-++++-+-++----
----+---+--+--
-+-+-+---++++-
--+-++--++++-+
++-+----+-+-+-
+-+-++--++--+-
+----++-++---+
++-++----+-+--
---+++-+--+---
-+++++----+-++

*** Life<FredkinCell> 32x42 ***

Generation = 0, Population = 14.
------------------------------------------
------------------------------------------
----------0-------------------------------
------------------------------------------
------------------------------------------
-----0---------------0---------0----------
------------------------------------------
------------------------------------------
------------------------------------------
------------------------------------------
------------------------------------------
------------------------------------------
---------------------------------------0--
------------------------------------------
---------------------0--------------------
------------------------------------------
------------------------------------------
------------------------------------------
-------0----------------------------------
-------0-------------------------0--------
------------------------------------------
------------------------------------------
------------------------------------------
------------------------------------------
------------------------------------------
-----0-------------------------------0----
------0-----------------------------------
------------------------------------------
------------------------------------------
----------------------------0-------------
------------------------------------------
---------------------------------------0--

Generation = 63, Population = 630.
30-3-3----62-85--3---94+5859----26--2-----
22----4--7-4-9164-3-6+-----78--9671+-+----
--65---+7-66--4-46--6--476--79++9+-84-5---
3-054--+32--2-67-5-76-28-92----5--4-67-9--
---26-7-+7-----761-7-++-8-2+55-----4-83-2-
1------+----+------+5+-+-+---+68----7-3+-9
-5-6+------9-6--737---5-7-------6----8-744
---224-8--3-2-141-1-5--9-----63--4----1---
-14-5---84-5-65--35---------784---1-----04
22583---153-72---3-36--+---9++-9---2--3626
565--7-+-8894---72544++-6-6+7-6-4---2+1-6-
-4------4-0----+15-67-3+--8+-7-+-9--4---1-
-9---+---87-6-477-6--+-5-5--0-0-1-2+2-4+09
160-0-2--+----3+-----+6------8-+-97---3-34
789--+-+8+--56----9-5-7--4----2-0+--7+18--
-8-5--09--3823-6-+---827+-4----34--+3-3---
-24-4-7---3-8--------54-35-1---+--25-62---
0-65--2+-76+5--+-3--96-+-+7-7-6+-53-97-+--
-6-9-8---++--+2---6+7-5-3-3+--6----+7-5-4-
--2+---+3-----7---6--+-+-8-+--6--6-+-+-+-+
--4-477+6-99-8+7-57---3-8-1+25482--+1-3-0-
-75+4-----6+-435-7-6---9-757--8-5-2-2+-+--
539---9-9+----7--42-2---878---65+5-9-54---
28--4+--79-7--4-7-54-+--+6---5--680-4-0---
---35--9----565--3-22-2+----3----142--39--
1564-----9--8--9--5-8335-2-4------52-5-+4-
2------+4-+49---6--8--9--5-2----------4-36
8-7+--87755--48--+----6-++-4------15---6-5
4-579-7++----437--73-+8-6--3-----65+17--26
7--++-69--+-+-++4-++-+--6-484---886+-+4-9-
35----+--5---6-29----4-78-7866-256--1-546-
-447+72-6-----3--647++-+---484-++----3---7
