*** Life<Cell> 15x16 ***

Generation = 0, Population = 13.
-0---------0----
---------00-----
----------------
---0-----------0
--------0-------
----------------
----------------
--00------------
--------0-------
---------0------
----------------
----------------
0---------------
----------------
---------------0

Generation = 11, Population = 94.
-.-1.--*****..-1
--0.**.*-.-.1.-1
.***0.0..-.*--1*
.-1*-**....*--*1
..-.1*-*-..1*.*-
*-110-.**1--*..-
*.0.0.*1.-1.-0.0
...*...-1.*---10
*1-*.-00.*-.1--*
**.*-.0.-.--**.*
0-.-.1.*-*.*-.1-
***--*.*-.0*01.-
*----...--..---.
*-*--.*...-.-.-.
-**-.0.--.--..01

Generation = 22, Population = 62.
...-..........0.
-11***..-.-.-...
*.*.**0..-....-.
*......*....*..*
....*****..*...*
.*..-**.*.......
..**....*0...-.-
.....**1***..1..
..-.*..-*....-..
...*...**.......
....*...**..-...
......*.........
.1..*.*.*.......
*-*1***....*-*..
-..1....*..*.*..

Generation = 33, Population = 42.
...**.........-.
-.*.**..*.0.-...
.**.**.**-....-.
.***......*.....
...*..*.***.....
.....***........
.............-.-
......*......-..
.............-..
....*.*.........
............-...
....*.*.........
.**.***.........
.*..***.....-...
1*.*............

Generation = 44, Population = 27.
.........*....-.
.........*.**...
........*..***1.
.........*.***..
.........****...
..........**....
.............-.-
.............-..
.............-..
................
.*.**.......-...
....*...........
*...............
.**.........-...
1...............

Generation = 55, Population = 23.
..............-.
......**...**...
.....***...***-.
......**...**...
.......*****....
........***.....
.........*...-.-
.............-..
.............-..
................
............-...
................
................
............-...
................

Generation = 66, Population = 13.
..............-.
................
................
................
..........***...
..........***...
.........*...1.-
.........**..-..
...........*.1..
................
............0...
................
................
............-...
................

Generation = 77, Population = 16.
..............-.
................
................
.......*...**...
.......*...**...
.......*...***..
............**..
................
............***.
.............*..
............-...
................
................
............-...
................

Generation = 88, Population = 3.
..............-.
................
................
................
......***.......
................
................
................
................
................
............-...
................
................
............-...
................

Generation = 99, Population = 3.
..............-.
................
................
.......*........
.......*........
.......*........
................
................
................
................
............-...
................
................
............-...
................

Generation = 110, Population = 3.
..............-.
................
................
................
......***.......
................
................
................
................
................
............-...
................
................
............-...
................

Generation = 121, Population = 3.
..............-.
................
................
.......*........
.......*........
.......*........
................
................
................
................
............-...
................
................
............-...
................

Generation = 132, Population = 3.
..............-.
................
................
................
......***.......
................
................
................
................
................
............-...
................
................
............-...
................

Generation = 143, Population = 3.
..............-.
................
................
.......*........
.......*........
.......*........
................
................
................
................
............-...
................
................
............-...
................

Generation = 154, Population = 3.
..............-.
................
................
................
......***.......
................
................
................
................
................
............-...
................
................
............-...
................

Generation = 165, Population = 3.
..............-.
................
................
.......*........
.......*........
.......*........
................
................
................
................
............-...
................
................
............-...
................

Generation = 176, Population = 3.
..............-.
................
................
................
......***.......
................
................
................
................
................
............-...
................
................
............-...
................

Generation = 187, Population = 3.
..............-.
................
................
.......*........
.......*........
.......*........
................
................
................
................
............-...
................
................
............-...
................

Generation = 198, Population = 3.
..............-.
................
................
................
......***.......
................
................
................
................
................
............-...
................
................
............-...
................

Generation = 209, Population = 3.
..............-.
................
................
.......*........
.......*........
.......*........
................
................
................
................
............-...
................
................
............-...
................

Generation = 220, Population = 3.
..............-.
................
................
................
......***.......
................
................
................
................
................
............-...
................
................
............-...
................

*** Life<Cell> 35x39 ***

Generation = 0, Population = 11.
---------------------------------------
-----------------------------0---------
---------------------------------------
---------------------------------------
---------------------------------------
---------------------------------------
---0-----------------------------------
-------------------------------0-------
---------------------------------------
-0-------------------------------------
---------------------------------------
---------------------------------------
------------------------------0--------
---------------------------------------
--------------------0------------------
---------------------------------------
---------------------------------------
---------------------------------------
------0--------------------------------
---------------------------------------
------------------------------------0--
---0-----------------------------------
---------------------------------------
------------------0--------------------
---------------------------------------
---------------------------------------
---------------0-----------------------
---------------------------------------
---------------------------------------
---------------------------------------
---------------------------------------
---------------------------------------
---------------------------------------
---------------------------------------
---------------------------------------

Generation = 3, Population = 207.
--------------------------000-000------
--------------------------0-0-0-0------
----------------------------000--------
00-0-00-------------------0-----0------
0-----0-------------------000---000----
--000-----------------------0-----0----
0--0--0-----------------------000------
--0-0-----------------------0-0-0-0----
0-0-0-0-----------------------000------
00---00--------------------0--0-010----
000------------------------010-0--0----
0---0------------00-0-00-----000-------
00-00------------0-----0---0-0-0-0-----
-------------------000-------000-------
-----------------0-0-0-0---0-----0-----
---00-0-00---------000-----00-0-00-----
---0-----0-------0-----0---------------
-----000---------00-0-00---------00-0-0
00----00-0-----------------------0-----
0----*-0---------------------------000-
--0-*----0-----00-0-00-----------0-0-0-
0-00----00-----0-----0-------------000-
--000------------000-------------0-----
0-----0-----00----00-0-----------00-0-0
00-0-00-----0----*-0-------------------
--------------0-*----0-----------------
------------0-00----00-----------------
--------------000----------------------
------------0-----0--------------------
------------00-0-00--------------------
---------------------------------------
---------------------------------------
---------------------------------------
---------------------------------------
---------------------------------------

Generation = 6, Population = 267.
-0-0---0-0-----------------------------
-----------------------------0-0---0-0-
-0-------0-----------------------------
---1---1---------------0-0-----------0-
-1---11--------------------------------
-*-*-*11---------------0---------0-----
-*-*--1--0--------------1----110-01-1--
-----------------------0----11---1-*-0-
-*-1-11-------0-0---0-----*-11..11*-1--
-.1-1.11------------------11-1--1*11---
-.111*1--0----0-----------11*1--1-11---
----11---------------------*11..11-*-0-
0---111--00-0-----0-0-0-----1---11*-1--
---11*-1-------------------10-000--1-0-
0--11-*-----0-0---0---0-----0---------0
-111-111-1-----------------------------
--111-111---------0-0-0----------------
-1-*-1-.11--0-0---0---0-1--------------
0-*--0--11----1---------------0-------0
-----.01----------------1--------------
--10.---1--0--11---1-1--0-0---0---0-0--
-1--0--*11----111-111------------------
0-.-1-*-11--11-*-1-.11------------0-0-0
--11-111----11*--0--11--0--------------
0-11--11--0--1---.01----------0--------
-0------------10.---1------------------
------------11--0--*11--------0-0-----0
-0-0---0-0--11.-1-*-11--0--------------
-------------111-111-------------------
------------1-11--11--0-0--------------
---------0-----------0-----------------
---------------------------------------
---------0-0---0---0-0-----------------
---------------------------------------
---------------------------------------

Generation = 9, Population = 467.
00-00-00-0--0-------000----------------
-1--0-0-0--00-------0-0----------------
0-----*---0---------000-------000------
---*1-*.10-----------00-0--0--0-----0--
1.111..0------------0--0*-*1--11-------
0.-.1.*.100--0-----0--0*----*--0-0000*0
-.-.-..--00110-----010-0--00-*.-0.-0*-0
----*---000--0-----0--**-00*1.0--*0.---
-.*--**---0----------**-*-.-*-..-..-.-0
0.-0....0*0----------*-1--1.1-00*..*0--
-.-*..-00-0---------0---1--..*00-1.-0--
*1-0..1---0----------00-1*-..-..-.-.1-0
0---..---*-00-----------1-10.0*0*.*-*--
10-1..1*----------------0--*--1**-----0
1-0..-*1*---0------000-010---0---***--1
1...-..*-*-*--00--0--0-------0-1--1--0-
--...-...0-**----01--*.0----00-01-00---
1.0.0.1.*-00-**000.***.--00-00-----000-
1-*0----1*--*-.---**-**----0-0-0-0-0-0-
-*-*-.0.0--0*--------*--*-0000-00-00---
----*----*00--*-00-.0*0-*-0------0---0-
110-0--**-0-*0**10.-*0-*--0000-----00-0
*-*0.-.-..11..-*0.-*.*--*00--0---0-0-0-
--*101.*0-00-**0--10-*------00---------
-1-.-0-*-0-0*----.0.-0*00000-----0-0-0-
-1*----------0.0.---10-00----------00-0
1---00------*--10--**1-----------0---0-
---00000-000*.*-.-*-*.0*---000---------
------0-0*---..--1**---0---0-0---0---0-
------000-**.--.001.--*10--000---00-00-
--------0-***01-*--0-*--0000-----------
----------*-0---00-*01---0-0-----------
---------0--0-0000---00--000-----------
------000-----000-----000--------------
------0-0-----0-0-----0-0--------------

Generation = 12, Population = 503.
-1*1-1-1**0----0--1110----0----1---00-0
0*--1111---*0----0-*---*1-111*1----0---
10-*.-*--1--0-------*-1-*--**--**-00--0
---..-*.-0000------------**---00**--0--
..-.-.*-0-0**0*1-1-----*.-*.--*.00----*
1*-.*..*.--------0-*---*0---.-1.00--1.-
-.1.*..-01.-**-1---1---0*0-*1..-*.1-.--
1-0-.*-0-*-00--------1..---.-.1-0*0*---
*.*--..1-0---0*--100*..-.-*-.****.*-.11
1*.-....*.1--1-1----*.1.0--.---1...*-*0
-.1.*.-*1--0111---1--1--*-*...--*.*----
.-**.*.*-0.-0-000-001---..*..*..-.-.-1-
----.*-*-*101*0-0-0--1--.-*-.-.-***-.10
.1-...*.-1-100---1-0001----*-1.*.--*---
*-1..-...-*1101---0--0--*00-01-*1***0--
*.*.-.**-.*.10---*1--*-0-0*-0*----.00*-
0**..0..*-1.*--01---0**100-*----*-*00--
..1.-*-***---.*-.-.*...*--11-11-1-1-.--
-1.0-**-.*-1.-*---.*-.*-1-1--111-1--11-
-*0*-.1.----*00--*.*0.*0.-*-11-----00-0
--*-.*1-**0*10*----.-.-0.-1-1-0-----0--
1-.----..1--.-*.*0.-**1*-00------------
.-.**-*-*.-*..-*1.0..*--*-*-----0------
-0.-0-**11**1.*---*11.0*----*-0--------
***.--1*-1-..*-*-.1.-1*-1.---0--0-0-0-0
0..-*--0**-*10*0*---.--11-----0--------
***---1---*-.--.-00*.*-*--0--10--------
-*----1--..*..*-*-.-.*-*----1----------
0---*1.-..*--..-*.*.-*-*--*-1-------0--
01---1----...-1*-1***-.--111-----------
0---1--00-**.-*-.1---.-1--.-------0-0--
------0---**--0--1-**-1-0-1-0-1--------
------1----*.1-*1-------0.11------0-0--
-----1--.-*-*11-.0---11*1-*------------
---0--0----1--1000--1--0-0-0-----------

Generation = 15, Population = 571.
*.*-1.1**.1*1---0-*.*-----1--0-.00-0-11
-*-*--.--1*.00--0.-.1--.*-..-..-0--11*1
.--**-.-.*1--*-000-1.*.-*--.*--.*-1-*-0
001*.-*..1.-*--0-*****10-..0--1**.0*.-0
*.-*1.*0--1.**..*..**11..-*.-*...--0-.*
*.-**..*.----00*-.-.---.1---*.**--.-1*-
*.-.*..*1-**..--1-**.101.-0***.-*.--.--
.--*..-01.--00-1-1--0*..01-..***0*-.--1
...-*.*1-*-*--.--*1-*.*-*0*0.*.*..*-..*
*.**.....*-*0.0*---**.**-*-.----.*.*-.*
-*..*...-0**-..0*-**-.--.-.*..0-*.*--*-
.1**....-*.0-0.1--.-.-1-*.*.*..*-.-.*1-
-1-0..1*-...**00*111----.-*-*-*1.**-.--
**-**...-.-.**0*-.--1-*--0**-**..0-.---
.*-*.-*..*...*.0110-1-0-*0-----*.....-1
..*.0*.*-.*...---*-*-.01--.*-.-*-1.-..*
0.*.*1...--..01-1-*-1.*-*-0*----.**10.*
**-.1**...--0..-.-...*..*--*-*-0*-*-**0
*..*-**-**-..1***-..0..*--*-0*..0--0.*-
-..*1.*.---0*.0...*.0*.1.-*-..0---0100.
*-.*..**.*-.*1*--.*.-*--.1*-*0-0--*---*
1*..*-...*1-.-.*..*1**1*10*-10--*-0*---
.0...-.-**-*..-.*.-...--.-*---00---0---
-*.-1-***1**...1*-.-..1.*-00.**00000---
.***11-*-*-..*-.0.*.*..1..-*---*00-0---
-..-.--1..-.**.1.01-.-*-.**00-*---00---
...--01*--*-.1-*--1...-.--1-1*-01------
1.0-0---1**...*.*-*0..-.00----00-------
1---...1***-0.*-....-*-*0*.1---10------
..---*-1-1*..--.**...-*-*-..-*1-10---00
0-*-.*-1.**..*.-..1*1.---1.-11-000---0-
0*--*---1*.*-*-111*..*.1-**---10-00-0-0
-1--*--*-11*.--*.--0*1-1-..11-000----0-
000---*1.-*0*-.-*-100-..--*-000-100-0-0
---110----1--1.*10--.01.--*1*10-1----0-

Generation = 18, Population = 558.
***-**.*.*...-*1.-*..*100--**--*--0---.
-.-.-...-***-.*-0*-..--.*-..1*.*--0*.*-
.*1.*-..*.1*1.-*1--1...-*--*.0-.*-.-.-1
1-*..-..*..-.1-*0**...*--..0-***.**..*0
*.1.-..**0..*.***.*.*.-..-**1...*1**-..
*.1......0-0-1-.*.-.1--..-*1..*.--.--.1
*.1*..**1*.*.*11*-...*-..0-...*1.*-*.-1
.--...11.*--.*1.-101-*..1.-.*...1*-.--.
.**-..**-*1*--.--..-.*.1*1.*.*.*.**-**.
.*....**.*-.1*-*010.***.-.-.*-*.*.**1..
*..***..-1*.-..1.-.*0.00.-..*..-..**1**
**..****-*.*-1..--.1*1--***..***-.-.*-1
----..*.1....*1*.--1-.-1*1*-.-.****-*-0
**-.*...-.*...-*-.-*--*0-1*.*.*.*--.--*
*.-.*-*..*.....*1..--1*-.--1.*-**...*-*
..*.-*.*1....*-*-.1**.**-1**-*-.--....*
1........1**.0.1*0.11*.1.-*.0---*..-*.*
*.1*....**-*0.*-.-.....*.--.1.*0.1.0...
...*-*.1.*-**-****..*...****-..*---*..-
0*..**.*-**1*.1..*..*****-.-*.1*-*--1-*
.*....**.*-.*1..*...0.--***1.--1--*--0.
***..-.**.--.1........**.-.-*--1*1-.0.0
.....-*0..1*..0...-...00.1.11-*1-00--0-
*..1.-*.....*.***1*-.....--1*..110-1*10
.....*-.-.-.*.1.-*.*......-.-*-..1000-0
**.0.*-..*-.*.***-.-.-.-..*.-0*--1.--00
*.*-*1..-1.*..0.-**..***---0*.---11-0-0
*.--..--*...***..**0..*.-1--1--.----0--
*-*-.......00*.-..*.1.-....--*-*00*-0-0
.*1*-.-*-..*..-.**..**.-*-..-.-0.0-----
0-*1..--*.*....-..1.1***-..1*1-1--1---0
***1.**0....1.--*.****..0..-*-.*01--0--
1.-0***.-*...-1**---.*-***.-.-.*10-0--0
--*--1*-**...-.-.-.01-*..-*-...--0--1--
-**110.0--*--******-.-.*-1***.*-11----0

Generation = 21, Population = 531.
..*-*........-.****...1----..0*.10-*1-.
-*1..**.1****.*--.**.--*.-*...*..--..*-
*.*..*..*.***.-**--**..-.--..00..1.*.1.
--.........-*.-**.*....*-..1-..**....*0
..*.-.*..-*.**...**.**...1..**...*..-**
.*...*.*.0--1-*...1.1--.**.-*..*1*.--.*
.**..******.*.*-.-*...-..1*....*.....-*
.1-*.*.*.*1****.-*1*0...*..*...*..-*00*
**.1*..*-.-.*-*-0..*..*..-*........1..*
**.....**.-.*.-*.-1*..*.-*-..-..***...*
**......-*.*-**-.-**.*0**-.....1...*..*
..***...1*..--*.1-*1..--..***.****-*.*.
---1.*..1******..--*-.11.***.-.....**10
**1.**..1*.**.**1*-.*0.--*..***.*--*--.
..1**0.......**..*.---.-.---..-......**
****-**..*....-.-*...****-*.1**.*-..*..
..*.*.*.**.**-*..-.--*...-..11**..*-***
**-.**...*-.1**0.-...*...1-*-..1.**-.*.
*...0**-.*-.*-.......*.....*...*1--*.**
0***....-***......*****..-*-**..1.1.11*
*....****.-**-..***.-.10.....*-11-*---*
*.*..-..*.*1..*.....*...*-.0*--1.1-.-*0
*.**.1.-*.........-***...-*-*1*.-10--1-
*.*-.-*.*.......*.*-.....*-.......1*.*-
...*.*..-.-...1.-..**.....0*-*-..---.--
.*.0....*.-*****.-.**-**...*-.*0*-.-11.
...-.1.**-*...-*1.*....*--.*..--*--0-0-
*.0****-**.**..*..*1...*---**.-.1--0-01
*-**..***.*11..-**.*.***..*1-*-.1**-**-
....-.-.-*...**.*.**...-....-.-..-----0
11**..--*..****1*.**....-..*.1-*-*---0-
.*.....-*****.1-......*.-..-.*...-1*.--
*.-1*...-.*..-*****-.*-....1.-***---**1
-*.*-..-....*..-.-.0-*...1.-...01-*-.--
-...*-.0.0.--*****.0.-**-**....-11-0*-1

Generation = 24, Population = 475.
.**......*...1.*******.10.1..1*.**-.-*.
1.......1......-0....--..1*....**-0***1
.*.*.......***-..--....-.--..-*....*.*.
*-*..*..***1..-..**..*..*..*-......*.*-
....*.*..-......*........1**.......*1*.
...*.....-10.1..**..--0..*.*....-..0*..
*.*....*.....****1....1..1.*...***..*-.
.1-.*.....-.*...0.-.0....*.*......1**-*
...1....1.-..-.--*......**.**.*....*.*.
...**....*-...-..1-..*.**.-*.-.**......
..*..*..-****.*-*1...*.*.-**...-.......
**.*....-**.1**.-0.*.*-1**......*.1..**
---*....*......**-1*-*-***...-...*.*.*-
..-**........**.*..**0*--..**..**--*--*
...*.-*......**....-.-.-*.0-.*1..**.*..
....1.......*.-.-*.......1*.*.*..*.***.
...........**-**.0*11...****-*..*..1...
.***......-.-.*0.1*...*.*1-.1**1...-.*.
*...1...****.**..***.....*..***.---.*..
*.***...-..***.....*..**.0*0**..-*-..*.
*.*.*****.-.*1.....*-.*-..***.-.--..00*
.....-......*..........**-.-.--*.*-.-*-
......*-.****....*1.....*-******-*---*1
...1...*..*.......*-.....*-..*...*..**-
..*.*...-*-.**.*-.**..**..*.-.1..-10.01
**.*.*....-***...-**...**...0.*..-*0.1.
**.***...-*.**-...*..**.--*...0-*.1000-
**-...**.****..*.********10**.-.*0-*--*
.-*........**..-.***........-**.-.*-..1
.**.-.-.-......****..**-..*.-....---.11
-*.*..0-**....*****...*.1.*.*.*.-**-*-0
*..*...1**...*.-.....*..-..1......-.*-*
*.1-*...0....-.****-**-....1.1..*-*-.*.
1.*.-..1....*..-.1*--.*.*-.-.....0.0.-0
1..*.1.-.-.--......1.1..0.....*0..00.1*

*** Life<Cell> 31x38 ***

Generation = 0, Population = 5.
--------------------------------------
--------------------------------------
--------------------------------------
--------------------------------------
--------------------------------------
--------------------------------------
--------------------------------------
----0---------------------------------
--------------------------------------
--------------------------------------
--------------------------------------
--0-----------------------------------
--------------------------------------
--------------------------------------
--------------------------------------
------------------------0-------------
--------------------------------------
--------------------------------------
--------------------------------------
----0---------------------------------
--------------------------------------
--------------------------------------
--------------------------------------
-------0------------------------------
--------------------------------------
--------------------------------------
--------------------------------------
--------------------------------------
--------------------------------------
--------------------------------------
--------------------------------------

Generation = 94, Population = 152.
......................**.**...........
.................**...*....*..........
**...............**.....**...*.**.....
**.......................*...**..*....
........***...................*..*....
.......*..*................***..**....
.......*..*................**.**......
.......***..................**.*......
............................***.......
......................................
.**..............**.................**
*..*............*..*................**
**.**...**.......**...................
..***...**............................
..*.**..**............................
...***.***............................
*.**.*..*..........*..................
*.......**........***................-
.*.......**......*.*.*................
........*.......***.***..*............
.................*.*.*..*.*...........
..................***..*..*...........
...................*..................
.............**.......................
............*...*..................**.
........**...*.**......*...*.......**.
............****........*..*..........
..........***............***..........
...........**........-................
.-....................................
......................................

*** Life<Cell> 28x6 ***

Generation = 0, Population = 10.
------
------
------
------
----00
------
------
------
-0----
------
------
------
----0-
------
------
------
-----0
-0--0-
------
------
------
------
---0--
------
------
------
----00
------

Generation = 156, Population = 18.
......
......
......
......
......
.**...
.**...
......
......
......
......
......
......
......
....*.
...*.*
...*.*
....*.
......
......
......
.**...
.**...
......
......
...**.
...**.
......

Generation = 312, Population = 18.
......
......
......
......
......
.**...
.**...
......
......
......
......
......
......
......
....*.
...*.*
...*.*
....*.
......
......
......
.**...
.**...
......
......
...**.
...**.
......

*** Life<Cell> 17x17 ***

Generation = 0, Population = 33.
----------------0
---------0-----0-
-----------------
----0------------
0--------0-------
-0---00-0------0-
-----------------
-------------00--
-0-----0----00---
0----0-----------
-----------0---0-
-----------0-0---
--0------0----0--
-----0-0----0----
----------------0
-----------------
0----0-----0-----

Generation = 65, Population = 22.
.**............-.
.**....**........
.....*...*.......
....*....*.......
....**.**........
.................
.................
.................
.................
.................
..****...........
..*.**...........
.....*...........
.................
.................
.................
...........-.....

Generation = 130, Population = 57.
.....**........-.
.*..***..........
..*..*...........
.................
.*..*****........
.......***.......
..****.....*.....
...****..........
......*..........
.......*..**.....
.**.....**..*....
.**......*****...
.........**.***..
..........*...**.
...........***.*.
............***..
.................

Generation = 195, Population = 13.
...............-.
.................
.................
.................
.................
..............*..
.............*.*.
.............*.*.
..............*..
.................
.................
.................
.........**......
........*..*.....
.........*.*.....
..........*......
.................

Generation = 260, Population = 13.
...............-.
.................
.................
.................
.................
..............*..
.............*.*.
.............*.*.
..............*..
.................
.................
.................
.........**......
........*..*.....
.........*.*.....
..........*......
.................

Generation = 325, Population = 13.
...............-.
.................
.................
.................
.................
..............*..
.............*.*.
.............*.*.
..............*..
.................
.................
.................
.........**......
........*..*.....
.........*.*.....
..........*......
.................

*** Life<Cell> 19x6 ***

Generation = 0, Population = 20.
---0--
0-0---
------
------
0-000-
0-----
------
-----0
--0---
-0----
--0---
---0--
0-----
----0-
----0-
----0-
0-----
------
0----0

Generation = 168, Population = 1.
......
......
......
......
......
......
......
......
......
......
......
......
......
......
..0...
.-....
......
......
......

*** Life<Cell> 40x31 ***

Generation = 0, Population = 26.
-------------------------------
-------------------------------
-------------------------------
--0----------------------------
-------------------------------
----0--------------------------
-------------------------------
0------------------------------
-------------------0-----------
-------------------------------
-------------------------------
--------------------0----------
-------------------------------
--0----------------------------
-------------------------------
-------------------0-----------
-------------------------------
-------------0-----------------
---------------0---------------
-------------------------------
-------------------------0-----
-------------------------------
-------------------------------
-------------------------------
----------------------------0--
-------------------------------
-------00----------------------
-------------------------------
-------------------------------
--0----------------0-----------
-------------------------------
0--------------------0---------
---------------------0---------
---------------------------0---
---------------------0---------
-------------------------------
-----------------------0-------
---0------0--------------------
--------0----0-----------------
----------0--------------------

Generation = 138, Population = 42.
............................**.
............................**.
...............................
......................-........
...............................
......***....................**
.............................**
...............................
...............................
...............................
...............................
...............................
...............................
...............................
......**.**.................**.
.......*.*..................**.
........*..........-...........
...............................
...........*...................
..........*.*...........-...-..
...........**..................
.............................**
.............................**
...............................
...............................
...............................
...............................
.................**............
.................**............
...............................
......*........................
......*........................
......*........................
......*........................
....*.*........................
.....*.........................
...............................
...............................
...............................
...............................

*** Life<Cell> 23x20 ***

Generation = 0, Population = 26.
------------------0-
--------------------
----0----------0-0--
----0-0-------------
---------------0----
--------0-----------
-----------0--------
-0------------------
--------------------
-----------0--------
--------------------
-------------------0
-------------------0
---------------0----
-------------0------
---------------0----
--------------------
-----------------0--
----------------0---
--0---------0-------
-------0--0---00----
--------------0-----
----0---------------

Generation = 56, Population = 42.
0-..................
..............**....
.............*.*....
.............*..*...
..............***...
...............*.*..
....................
.*....*.........*..*
.*.*..**........*.**
.*.**..**...........
....**.*............
.....**.....*.......
...........*........
..........*..*......
...........*........
....................
.................**.
.................**.
-...................
....................
....................
-....-......-.......
....................

Generation = 112, Population = 15.
0-..................
...............***..
....................
....................
....................
....................
....................
.**.................
.**.................
.............***....
....................
....................
....................
....................
....................
....................
.................**.
.................**.
-...................
....................
....................
-....-......-.......
....................

Generation = 168, Population = 15.
0-..................
...............***..
....................
....................
....................
....................
....................
.**.................
.**.................
.............***....
....................
....................
....................
....................
....................
....................
.................**.
.................**.
-...................
....................
....................
-....-......-.......
....................

Generation = 224, Population = 15.
0-..................
...............***..
....................
....................
....................
....................
....................
.**.................
.**.................
.............***....
....................
....................
....................
....................
....................
....................
.................**.
.................**.
-...................
....................
....................
-....-......-.......
....................

Generation = 280, Population = 15.
0-..................
...............***..
....................
....................
....................
....................
....................
.**.................
.**.................
.............***....
....................
....................
....................
....................
....................
....................
.................**.
.................**.
-...................
....................
....................
-....-......-.......
....................

Generation = 336, Population = 15.
0-..................
...............***..
....................
....................
....................
....................
....................
.**.................
.**.................
.............***....
....................
....................
....................
....................
....................
....................
.................**.
.................**.
-...................
....................
....................
-....-......-.......
....................

Generation = 392, Population = 15.
0-..................
...............***..
....................
....................
....................
....................
....................
.**.................
.**.................
.............***....
....................
....................
....................
....................
....................
....................
.................**.
.................**.
-...................
....................
....................
-....-......-.......
....................

*** Life<Cell> 7x33 ***

Generation = 0, Population = 31.
----------0-----0--0------0------
--0-----------00--0------------0-
-------0------------------0--0---
----------00---0----------0-----0
-------0-------0--0--0-----------
0---00---0----------0------------
-----------0------0-------00---0-

Generation = 28, Population = 44.
.-..-****....-.........*..-......
....*.-.*.......-.......*........
...****..............-.**........
.***...-...*........*..-*........
1.*..*..**.**........*-.*..*.....
**...**.*.1.**...........*.*..-.-
**.......*................*......

Generation = 56, Population = 21.
.-............**..........-......
............*..**........**......
...........*.........-..*..*.....
...........*............*.*......
..........**......*......*.......
..........*.......*...........-.-
..........**.....................

Generation = 84, Population = 16.
.-........................-......
.........................**......
.....................-..*..*.....
........................*.*......
..........*...***........*.......
..........*...*.*.............-.-
..........*....*.................

Generation = 112, Population = 16.
.-........................-......
.........................**......
.....................-..*..*.....
...............*........*.*......
..........*...*.*........*.......
..........*...*.*.............-.-
..........*....*.................

Generation = 140, Population = 16.
.-........................-......
.........................**......
.....................-..*..*.....
...............*........*.*......
..........*...*.*........*.......
..........*...*.*.............-.-
..........*....*.................

Generation = 168, Population = 16.
.-........................-......
.........................**......
.....................-..*..*.....
...............*........*.*......
..........*...*.*........*.......
..........*...*.*.............-.-
..........*....*.................

Generation = 196, Population = 16.
.-........................-......
.........................**......
.....................-..*..*.....
...............*........*.*......
..........*...*.*........*.......
..........*...*.*.............-.-
..........*....*.................

Generation = 224, Population = 16.
.-........................-......
.........................**......
.....................-..*..*.....
...............*........*.*......
..........*...*.*........*.......
..........*...*.*.............-.-
..........*....*.................

Generation = 252, Population = 16.
.-........................-......
.........................**......
.....................-..*..*.....
...............*........*.*......
..........*...*.*........*.......
..........*...*.*.............-.-
..........*....*.................

Generation = 280, Population = 16.
.-........................-......
.........................**......
.....................-..*..*.....
...............*........*.*......
..........*...*.*........*.......
..........*...*.*.............-.-
..........*....*.................

Generation = 308, Population = 16.
.-........................-......
.........................**......
.....................-..*..*.....
...............*........*.*......
..........*...*.*........*.......
..........*...*.*.............-.-
..........*....*.................

Generation = 336, Population = 16.
.-........................-......
.........................**......
.....................-..*..*.....
...............*........*.*......
..........*...*.*........*.......
..........*...*.*.............-.-
..........*....*.................

Generation = 364, Population = 16.
.-........................-......
.........................**......
.....................-..*..*.....
...............*........*.*......
..........*...*.*........*.......
..........*...*.*.............-.-
..........*....*.................

Generation = 392, Population = 16.
.-........................-......
.........................**......
.....................-..*..*.....
...............*........*.*......
..........*...*.*........*.......
..........*...*.*.............-.-
..........*....*.................

*** Life<Cell> 2x27 ***

Generation = 0, Population = 24.
---0-----00---0----000-0000
--0-00-00-0--0--0-000--00--

Generation = 54, Population = 10.
-..-..-....-.-.0---000-....
-.....-.-1.-..-00-000--....

Generation = 108, Population = 10.
-..-..-....-.-.0---000-....
-.....-.-1.-..-00-000--....

Generation = 162, Population = 10.
-..-..-....-.-.0---000-....
-.....-.-1.-..-00-000--....

Generation = 216, Population = 10.
-..-..-....-.-.0---000-....
-.....-.-1.-..-00-000--....

Generation = 270, Population = 10.
-..-..-....-.-.0---000-....
-.....-.-1.-..-00-000--....

Generation = 324, Population = 10.
-..-..-....-.-.0---000-....
-.....-.-1.-..-00-000--....

Generation = 378, Population = 10.
-..-..-....-.-.0---000-....
-.....-.-1.-..-00-000--....

*** Life<Cell> 28x27 ***

Generation = 0, Population = 16.
---------------------------
-------0-------------------
0------------------------0-
----0-------------------0--
---------------------------
-------0------------0------
--------------------0------
---------------------------
---------------------------
-----0---------------------
---------------------------
-----------------------0---
-----------------------0---
---------------------------
----0----------------------
---------------------------
---------------------------
---------------------------
---------------------------
---------------------------
---------------------------
------------0--------------
---------------------------
------00-------------------
---------------------------
---------------------------
---------------------------
-------------0-------------

Generation = 133, Population = 60.
..........**...............
..........**...............
.....................***...
...................**......
..................***......
......**.........*......*..
......**........**......*..
.................**........
..................****.**..
.....................**....
...........................
.............**............
.............**............
...........................
..................**.......
..................**.......
...........................
.........**................
.........**................
...........................
...........**..............
..........*..*.............
.........*...**..........-.
........*..................
........*..*...*...........
........*..*.**............
.-.......**................
...........................

Generation = 266, Population = 33.
...........................
...........................
...........................
.............***...........
................*..........
............*....*.........
............*....*.........
.............*...*.........
.............*..*..........
............***............
...........****............
..........*....*...........
...........**...*..........
................**.........
............*****..........
................*..........
.................*.........
...........................
...........................
...........................
...........................
...........................
.........................-.
...........................
...........................
...........................
.-.........................
...........................

*** Life<Cell> 36x38 ***

Generation = 0, Population = 10.
--------------------------------------
--------------------------------------
--------------------------------------
--------------------------------------
--------------------------------------
--------------------------------------
--------------------------------------
-------------------------------0------
--------------------------0-----------
--------------------------------------
--------------------------------------
----------------------0---------------
--------------------------------------
--------------------------------------
--------------------------------------
------------------------------0-------
--------------------------------------
---0----------0-----------------------
--------------------------------------
---------0----------------------------
--------------------------------------
----------------------------------0---
--------------------------------------
--------------------------------------
--------------------------------------
--------------------------------------
--------------------------------------
--------------------------------------
--------------------------------------
--------------------------------------
--------------------------------------
--------------------------------------
-----------------------------------0--
------------------------------0-------
--------------------------------------
--------------------------------------

Generation = 57, Population = 201.
-..................-........*.*.......
............................*.*.....-.
..***...........................*.....
.....*..........................*.....
**....................**......*.*.....
...**........-.......*.*....***.......
.***...**............*......*.........
........*....**......***...*..........
......***...*..*............1.........
...*.........****.....................
...*..........*...****..........-.....
...............*..*.**................
.............**...**..*..........*....
............*...*..*..*.........*.*...
............*...*..*..*..........*....
.............***...*..................
.........-........-*..................
..................*...................
.....-............*...*...............
.................**...*..*.*....***...
........*.*.......**.*..*..**...**....
......**..***...........*.*.***.**....
**.....*.*.............***..*.***.....
**......**...*..........**.....*......
.........*...*......*..............**.
..........***......*...**.........*..*
.......******......*.**.*..........**.
.......*...*......*****.*.............
........**.*.......*.......-..........
............*......**.................
...........**.....****.-..............
....*.*....**.....***.................
....**........................**..*...
.....*.......................***....**
.................................*...*
................-................**.*.

*** Life<Cell> 14x14 ***

Generation = 0, Population = 5.
--------------
---------0----
--------------
--------------
------0-------
--------------
-------0------
--------------
--------------
-0------------
--------------
--------------
--------------
-0------------

Generation = 171, Population = 10.
..............
...........*..
-.........*.*.
..........*.*.
...........*..
..............
..............
..............
-.............
..............
..............
........**....
........**....
..............

*** Life<Cell> 31x13 ***

Generation = 0, Population = 22.
---0--------0
----0---0----
-------------
-------------
--------0----
-------------
-------------
----00-------
------0------
-------------
-------------
0------------
0-----------0
-0-----------
-------------
-0-----------
--0--------0-
-------------
--0----------
-------------
-------------
-------------
----0--0-----
----------0--
-------------
-------------
----------0--
-------------
-------------
----0--0-----
-------------

Generation = 196, Population = 12.
.............
.............
.............
.............
.............
.............
.............
.............
.............
.............
.............
.............
.............
.............
.............
.............
.............
.............
.............
.............
-............
.............
.............
.............
..**.**......
..**.**......
.....-.......
.............
...........**
...........**
....-........

*** Life<Cell> 18x24 ***

Generation = 0, Population = 33.
------0--------------0--
-0------------------0---
---0-------0--0--------0
-----------------0------
--------00----------0---
---------------0--------
-0----------------------
----0---0-------------0-
-------0---0------------
----------0-0-----------
-------------0----------
---00------0------------
-0----------------------
------------------------
-------0---00--0--------
---0--------------------
---0--------------------
---------------------0--

Generation = 126, Population = 56.
.......-...........*....
-..........-.....*...*..
..-..................*..
.........*.*....*.....*.
........*...*...*...**..
.......*...*.***....*...
.......*..***.**........
...........**...........
........**..*..*........
.**......**......**.....
*..*......***.*.**......
.**........**.***.......
........................
........................
........................
........................
..**....................
..**....................

*** Life<Cell> 35x20 ***

Generation = 0, Population = 16.
-----0--------------
--------------------
--------------------
------------------0-
--------------------
--0-----------------
------------------0-
---0----------------
--0-----------------
---0----------------
--------------------
------------0-------
--------------------
--------------------
--------------------
--------------------
--0-----------------
--------------------
--------------------
----0------------0--
--------------------
--------------------
--------------------
--------------------
--------------------
--------------------
--------------------
---0----------------
----------------0---
--------------------
------------------0-
--------------------
----0----0----------
--------------------
--------------------

*** Life<Cell> 4x25 ***

Generation = 0, Population = 15.
-0-----00-0-0---------0--
0-----0------------------
---0-----------0----0-0--
--------------0--0--0----

Generation = 19, Population = 35.
....1**..1-1....1..*-*-**
..-..***..1.****.**...-**
.....*..-...*.--1..0**...
-1...**-....**.*.....1-.-

Generation = 38, Population = 26.
..............**.**......
..1...........**.*****...
**...**........***.***...
**...**..................

Generation = 57, Population = 18.
.........................
.**.................**...
*.*..**........**...**...
**...**........**........

Generation = 76, Population = 18.
.........................
.**.................**...
*.*..**........**...**...
**...**........**........

Generation = 95, Population = 18.
.........................
.**.................**...
*.*..**........**...**...
**...**........**........

Generation = 114, Population = 18.
.........................
.**.................**...
*.*..**........**...**...
**...**........**........

Generation = 133, Population = 18.
.........................
.**.................**...
*.*..**........**...**...
**...**........**........

Generation = 152, Population = 18.
.........................
.**.................**...
*.*..**........**...**...
**...**........**........

Generation = 171, Population = 18.
.........................
.**.................**...
*.*..**........**...**...
**...**........**........

Generation = 190, Population = 18.
.........................
.**.................**...
*.*..**........**...**...
**...**........**........

Generation = 209, Population = 18.
.........................
.**.................**...
*.*..**........**...**...
**...**........**........

Generation = 228, Population = 18.
.........................
.**.................**...
*.*..**........**...**...
**...**........**........

Generation = 247, Population = 18.
.........................
.**.................**...
*.*..**........**...**...
**...**........**........

Generation = 266, Population = 18.
.........................
.**.................**...
*.*..**........**...**...
**...**........**........

Generation = 285, Population = 18.
.........................
.**.................**...
*.*..**........**...**...
**...**........**........

Generation = 304, Population = 18.
.........................
.**.................**...
*.*..**........**...**...
**...**........**........

Generation = 323, Population = 18.
.........................
.**.................**...
*.*..**........**...**...
**...**........**........

Generation = 342, Population = 18.
.........................
.**.................**...
*.*..**........**...**...
**...**........**........

*** Life<Cell> 5x9 ***

Generation = 0, Population = 24.
0-000---0
-0-0-00-0
000-0--00
0--0---0-
-000-00--

Generation = 80, Population = 5.
.........
.........
.......**
......*.*
.......*.

Generation = 160, Population = 5.
.........
.........
.......**
......*.*
.......*.

Generation = 240, Population = 5.
.........
.........
.......**
......*.*
.......*.

Generation = 320, Population = 5.
.........
.........
.......**
......*.*
.......*.

*** Life<Cell> 26x35 ***

Generation = 0, Population = 4.
-----------------------------------
-----------------------------------
-----------------------------------
--------------------------0--------
-----------------------------------
-----------------------------------
-----------------------------------
-----------------------------------
-----------------------------------
-----------------------------------
-----------------------------------
-----------------------------------
------------------0----------------
-----------------------------------
-----------------------------------
-----------------------------------
-----------------------------------
-----------------------------------
----------0------------------------
-----------------------------------
------------------0----------------
-----------------------------------
-----------------------------------
-----------------------------------
-----------------------------------
-----------------------------------

Generation = 122, Population = 70.
...................................
...................................
...................**.............-
...................***.....*.......
.....................***..*.**.....
.....................*...*...*.....
.........*...........*...*.........
..........*..........**......*.....
.......*.*...........***..*..*.....
.....***...........*********.......
.....**............**...**.........
.....**.*................*.........
...-..**...........................
.................-.................
...................................
.-.................................
...................................
...................................
...................................
...................................
.................................**
**...............................*.
*.*..........................*.**..
.**.........................*..*...
...........................***.....
...................................

Generation = 244, Population = 81.
..................*................
.................*.*...............
..................*................
...................**..............
...........................*.......
..........*...............*.*......
.........*.*...............**......
..........*....*...................
..............***.*................
.............**...*................
..............*..**..**............
...............**..................
...........*.........**............
.*........*.*.......*..............
*.*.......*.*......................
.**........*.......................
...................*...............
..................*..**............
..................*..*.*...........
..................**.*.*.........**
...................*.**...........*
**.................**....**.......*
*.*......................**.....**.
.**.............................**.
...............................**..
...............................*...

Generation = 366, Population = 46.
...................................
...................................
...................................
...................................
...........................*.......
.................**.......*.*......
.................**........**......
...................................
...................................
...................................
...................................
...................................
........**........***..............
.*......**.........................
*.*.............*.....*............
.**.............*.....*............
................*.....*............
...................................
..................***........*.....
.............................*.....
.............................*.....
**.................................
*.*.......**.......................
.**.......*.*......................
...........*.*.....................
............*......................

*** Life<Cell> 30x35 ***

Generation = 0, Population = 40.
--0--------------------------------
----------------------0------------
-----------------------------------
----0-----------0------------------
----------------------------0------
--0----------0-0-------------------
---0------------------0-------0---0
-------------0----0----------------
-----------------------------------
---00-----------0------------------
-----------------------------------
-------------------------0---0-----
-------------------0---------------
-----0-----------------------------
---------------------0-----0-------
---0--------------0--------------0-
0---0------------------------------
--0----0---------------------------
-------------------------------0---
------------0----------------------
-----------------------------------
-----0-----------------------------
-----------------------0-----------
-----------------------------------
--------------------------0--------
----------------------0------0-----
-------------0--0------------------
---------0-------------------------
-----------------------------------
-----------------------------------

Generation = 21, Population = 315.
...-....-*..0.*.********.***.**-..1
***..-1*..*.1.*1-*.....-...-.*-*.0.
**...**..*........*-**-.***.*.1*.*1
**..*.*****..*-....***.*....**.-*.*
........*1*..*.-*..0....**.....*..*
....***....*...-*0.-........**..***
...***....**.**.*1-.....1..-.-...-*
.*...*...*.....*1....1..***.*...-.*
1-..*....--***...**.*...11..*..**-.
.*...*...**-..***-..**......****-*.
*.....*....-.-.*.....***...*.*-..-.
...*........*.--.....**.**.*.*-....
..--..*......*-*-..*.*.0*.*1-*-*...
-...*1.......**--..***..*.......*.-
.-.............-.*..**..**...-..1..
........-........-....1.-*-*..**...
..***.......-.*-..*...*-**...**....
.-..*.-...*-..**...*......-.**.....
......*..*.1**-**..**.-**.***......
........-....*.-....**.*..-.1...-..
.***.............*1..-..1*......*.*
..**.....*1......1*****.**-.*.....-
0.....*11.-....*.......1..**....**.
....1....*..*....0.*.***1...*......
..-....*.................*..**.....
-*.1--...*....*..*.............1..-
*1.*.-*1**...-...*.......***....*.0
*.1*.-*...*....*..-....*....*.*.*.*
****.-......-*-*...*--.*.-..*.....1
-*.-..0...1...1.1.*.***....-.-*-**1

Generation = 42, Population = 256.
..................*......**....1...
............*....*.**....**...*.*..
...........**.**....**....*..*..*..
...........*.*......***.....***0...
.............*....**.**......*.*...
..***....*...*.........*....**.**..
.........**...*......*.**......*...
...........***..****.*..***.*.**...
.*..*.....*.....**...*..*****.**..*
...........*****.....**.*.......**.
.........**-.-***.....*....**......
.....**.*...**..**...........**....
...*..*..**.....*.*.**....*.**.*...
.*.....*...**..***.*......**..*.*..
.*....*.......****.*.*..........**.
.*....*.-....**.*.**...............
..*...........*.........*...*......
.....*.....-...*.*.*....*.*..*.....
..*..*..........*..*.*****....*....
..*.**.................**.......-..
.*..*..........................*...
.*.*......*.................*.*...-
..*........**.................*....
.*.*......*..*.............*.**.*..
.*..*.....*..*...........**..*.*.*.
.*...*.....**............***.*.....
....**..*............*****.*.*....*
.......**...........**..*..*...*..*
*.**.**...*..........*.**.*.*..*...
.*...*****............**...*....***

Generation = 63, Population = 103.
..........***...................*..
.........*..*...*...............*..
.........**....*..*............*.*.
................**..............*..
...*............................*..
...*...............................
...*..*...***........*.*...**......
......*.....*....**..*..*..***.....
.....**....*.....**..*.*...........
......*...*........................
.......***...-.....................
...................................
...................................
...................................
................................**.
................................**.
.............................*.....
......**....................***....
..***.*.*..................*.**....
........*..................*.......
......***...................*****..
......*.*.....................****.
.....................*.*.....**..**
.............................**.**.
....................*.........*.*..
...................**.*........*...
....................**.............
...................................
...................................
...................................

Generation = 84, Population = 82.
...............................***.
.............................*....*
.............................*....*
....**.......................*....*
...*..*............................
..*...*...........**...........***.
........*.........**...............
...................................
..**.*.*....**.....................
..***.......***....................
....*.......*-.......***...........
...................................
.....*.............................
....**.............................
...............................**..
...............................**..
...................*...............
.................**.*..............
.................**................
.....................**............
.................**..**............
.................****..............
..................*...*.....**.....
...................*.**.....**.....
....................*..............
...............*...................
................**..*..............
...............*....*..............
...................*...............
................**.................

Generation = 105, Population = 78.
...............................***.
.............................*....*
.............................*....*
.............................*....*
...................................
..................**...........***.
........*.........**...............
.......**..........................
......***..........................
....***...............*............
....**....**..........*............
.....**..***..........*............
....*.*..**........................
..****.............................
..**..*........................**..
...**.*........................**..
....***............................
...................................
.......................**..........
.......................**..........
...................................
.....................*.............
.....................*......**.....
.....................*......**.....
...................................
.................***...***.........
...................................
.....................*.............
.....................*.............
.....................*.............

Generation = 126, Population = 98.
...............................***.
.............................*....*
.............................*....*
.............................*....*
......*............................
......*...........**...........***.
..................**...............
....*.*.*..........................
....*****..........................
..**.***.**........................
...**.*.**...........***...........
*.****.****.**.....................
...**.*.**.........................
..**.***.**........................
....*****......................**..
....*.*.*......................**..
...................................
......*............................
......*................**..........
.......................**..........
...................................
...................................
....................***.....**.....
............................**.....
..................*.....*..........
..................*.....*..........
..................*.....*..........
...................................
....................***............
...................................

Generation = 147, Population = 67.
...............................***.
.............................*....*
.............................*....*
.............................*....*
...................................
......*...........**...........***.
.....*.*..........**...............
.....*.*...........................
......*............................
......................*............
.**.......**..........*............
*..*.....*..*.........*............
.**.......**.......................
...................................
......*........................**..
.....*.*.......................**..
.....*.*...........................
......*............................
.......................**..........
.......................**..........
...................................
.....................*.............
.....................*......**.....
.....................*......**.....
...................................
.................***...***.........
...................................
.....................*.............
.....................*.............
.....................*.............

Generation = 168, Population = 67.
...............................***.
.............................*....*
.............................*....*
.............................*....*
...................................
......*...........**...........***.
.....*.*..........**...............
.....*.*...........................
......*............................
...................................
.**.......**.........***...........
*..*.....*..*......................
.**.......**.......................
...................................
......*........................**..
.....*.*.......................**..
.....*.*...........................
......*............................
.......................**..........
.......................**..........
...................................
...................................
....................***.....**.....
............................**.....
..................*.....*..........
..................*.....*..........
..................*.....*..........
...................................
....................***............
...................................

Generation = 189, Population = 67.
...............................***.
.............................*....*
.............................*....*
.............................*....*
...................................
......*...........**...........***.
.....*.*..........**...............
.....*.*...........................
......*............................
......................*............
.**.......**..........*............
*..*.....*..*.........*............
.**.......**.......................
...................................
......*........................**..
.....*.*.......................**..
.....*.*...........................
......*............................
.......................**..........
.......................**..........
...................................
.....................*.............
.....................*......**.....
.....................*......**.....
...................................
.................***...***.........
...................................
.....................*.............
.....................*.............
.....................*.............

Generation = 210, Population = 67.
...............................***.
.............................*....*
.............................*....*
.............................*....*
...................................
......*...........**...........***.
.....*.*..........**...............
.....*.*...........................
......*............................
...................................
.**.......**.........***...........
*..*.....*..*......................
.**.......**.......................
...................................
......*........................**..
.....*.*.......................**..
.....*.*...........................
......*............................
.......................**..........
.......................**..........
...................................
...................................
....................***.....**.....
............................**.....
..................*.....*..........
..................*.....*..........
..................*.....*..........
...................................
....................***............
...................................

Generation = 231, Population = 67.
...............................***.
.............................*....*
.............................*....*
.............................*....*
...................................
......*...........**...........***.
.....*.*..........**...............
.....*.*...........................
......*............................
......................*............
.**.......**..........*............
*..*.....*..*.........*............
.**.......**.......................
...................................
......*........................**..
.....*.*.......................**..
.....*.*...........................
......*............................
.......................**..........
.......................**..........
...................................
.....................*.............
.....................*......**.....
.....................*......**.....
...................................
.................***...***.........
...................................
.....................*.............
.....................*.............
.....................*.............

*** Life<Cell> 16x8 ***

Generation = 0, Population = 25.
-00---0-
0-------
-----0--
----00-0
----0--0
----0-0-
-----0-0
-0------
-0------
-0-----0
--0-----
--0-----
--0-----
-0------
--------
00--0---

Generation = 173, Population = 9.
........
........
........
....*...
....*...
....*...
........
***.....
........
....*...
....*...
....*...
........
........
........
........
