22

7 8
15
6 0
3 3
1 3
2 0
5 6
2 4
4 2
0 6
0 1
2 1
4 7
4 1
1 0
0 6
4 1
10 3

6 10
19
5 3
1 7
1 0
3 6
4 9
4 6
0 5
2 7
4 4
0 6
1 7
5 6
5 8
1 0
5 9
1 8
4 5
3 3
3 0
8 2

5 5
20
0 2
4 4
3 0
4 3
4 2
4 1
2 4
1 0
0 0
1 1
4 3
4 4
4 0
1 2
1 3
4 3
2 4
1 1
0 0
2 0
13 3

8 9
16
3 5
7 2
2 1
4 2
4 5
6 1
0 6
4 7
6 7
4 2
6 5
6 2
1 0
3 8
2 6
6 0
14 4

8 6
23
7 3
4 5
5 3
0 4
4 0
2 3
2 3
2 0
2 4
5 4
1 3
4 2
1 0
2 2
7 4
2 4
0 2
0 0
6 0
2 1
4 3
6 2
5 3
20 2

9 5
25
6 1
3 4
8 4
5 0
5 1
1 2
8 2
0 3
5 0
3 3
6 4
3 3
7 2
8 2
0 1
2 4
3 0
8 3
8 3
1 1
8 1
4 3
8 4
2 1
3 2
10 1

5 5
16
0 3
1 1
3 4
0 3
4 3
1 4
3 3
3 0
2 3
2 0
2 2
2 2
0 2
4 3
1 4
3 2
17 1

6 10
24
5 8
0 9
2 0
4 7
1 3
1 2
3 3
2 5
2 5
0 6
3 2
5 1
2 3
5 2
1 8
4 7
2 4
2 2
4 8
4 5
4 9
0 0
5 2
3 3
6 2

9 7
17
0 3
0 3
3 6
1 2
6 5
7 0
6 3
0 4
1 0
3 3
7 0
6 6
6 4
2 5
0 6
5 3
4 3
14 4

10 8
23
2 5
1 5
2 5
2 6
6 5
4 2
1 2
9 2
1 1
7 4
1 5
8 0
9 6
9 1
1 4
3 1
2 2
2 6
2 5
5 5
6 2
1 7
2 2
10 1

7 9
25
2 0
4 7
0 1
5 4
1 3
4 3
6 0
3 2
5 8
0 3
6 2
5 8
5 2
3 2
2 6
6 7
2 0
3 8
2 6
1 7
3 8
0 8
5 6
1 3
1 0
20 4

8 10
25
0 1
6 7
3 2
5 5
7 4
6 9
1 7
1 7
0 5
5 4
7 1
4 6
7 7
4 8
2 6
1 5
2 0
5 8
6 4
1 8
0 7
4 4
4 7
3 3
6 9
20 1

7 8
20
0 3
5 2
4 4
1 0
3 7
5 5
6 5
3 7
2 0
0 3
6 1
3 6
4 7
5 1
6 4
0 5
0 7
0 4
3 0
3 4
12 4

5 5
19
3 2
3 3
0 2
0 4
3 4
0 0
0 1
3 0
3 3
0 1
0 4
0 1
3 0
2 4
4 4
2 2
0 2
1 1
0 1
9 3

5 10
16
0 3
3 1
3 9
3 4
2 9
0 0
0 7
0 5
3 5
3 7
3 3
1 0
3 3
1 6
3 8
0 7
17 1

6 10
17
2 2
4 3
2 3
5 6
5 4
2 2
5 4
0 0
1 4
5 2
1 6
5 4
5 3
5 3
2 7
2 6
1 3
14 4

6 6
20
4 0
4 2
1 4
5 2
0 1
1 1
1 0
1 2
2 3
1 2
3 4
4 4
4 0
4 3
5 4
4 4
5 0
1 1
0 1
5 4
15 4

10 5
24
4 2
6 0
6 1
6 2
5 0
3 4
3 0
3 2
5 1
0 1
0 2
3 4
2 4
4 2
9 2
9 0
3 0
6 3
3 1
5 0
3 2
4 0
8 1
6 4
13 3

6 6
23
3 2
0 2
1 4
1 0
1 4
5 1
5 3
3 0
4 4
2 1
4 0
1 3
1 4
1 5
0 2
0 3
5 2
3 5
5 4
5 5
3 3
2 0
5 1
6 4

7 7
17
1 3
5 1
5 6
1 4
2 2
4 5
1 4
6 6
3 1
4 3
4 6
3 2
1 3
1 5
0 2
3 4
1 2
4 2

10 7
19
9 3
5 5
4 4
4 0
1 0
6 5
9 1
3 3
2 5
1 6
5 5
1 0
9 3
8 5
0 5
6 1
3 6
3 0
9 5
15 3

10 10
25
5 3
8 9
0 0
7 2
9 8
1 2
8 7
2 8
2 4
2 8
5 9
3 6
3 3
7 3
0 4
8 0
3 5
4 1
3 4
1 4
5 2
1 2
9 5
8 9
5 4
5 2
