24

7 10
21
0 4
3 7
2 8
5 1
1 4
2 9
3 4
4 6
6 5
6 9
5 5
5 9
2 0
3 9
4 2
4 8
2 6
2 4
6 5
6 7
3 9
15 2

8 9
23
2 0
5 0
0 1
6 1
0 6
4 1
0 0
7 6
7 6
7 8
0 6
0 1
0 3
6 6
4 8
2 5
4 2
1 4
5 7
4 6
1 5
4 5
7 3
9 2

9 6
24
3 4
0 3
6 5
4 3
5 1
2 1
7 0
0 0
6 3
6 0
7 5
6 2
7 0
4 5
8 2
4 1
0 3
7 4
7 2
7 2
7 4
2 2
2 2
5 4
15 1

5 5
24
2 1
4 4
1 1
1 2
1 3
1 4
3 4
4 3
0 2
1 1
3 2
3 2
0 3
1 0
3 2
2 0
2 1
3 1
3 3
3 3
0 4
2 0
1 4
1 0
15 3

10 10
17
7 9
5 7
2 8
6 2
2 1
2 2
8 5
6 1
8 1
0 3
0 7
3 5
4 2
5 1
3 4
3 2
5 4
15 3

9 6
21
3 2
4 5
1 4
2 5
7 2
8 4
7 0
4 0
2 1
6 1
8 5
6 0
5 2
7 0
2 1
7 4
7 0
8 2
2 0
8 0
0 2
16 4

8 7
15
6 4
4 5
3 3
5 1
7 5
5 0
7 2
5 5
4 3
3 1
6 4
7 0
3 0
6 0
3 0
4 2

8 7
17
4 3
0 1
3 1
1 1
6 3
1 5
2 0
0 2
5 0
6 1
1 0
4 1
2 2
2 6
3 2
6 3
0 6
6 2

9 5
23
6 0
6 0
7 0
4 2
6 1
7 2
6 0
2 1
7 4
4 1
8 4
7 4
3 3
4 4
1 2
4 0
4 2
4 4
3 3
5 3
4 1
5 1
5 3
12 3

9 10
15
6 6
0 7
5 2
1 4
6 4
0 6
2 6
0 6
5 4
8 3
8 8
7 4
3 8
4 4
6 0
19 1

9 9
19
8 8
7 7
2 8
0 8
7 7
3 1
1 3
0 4
4 7
7 3
8 2
7 4
8 4
1 2
3 0
6 0
1 7
2 4
6 0
10 3

6 10
25
4 5
2 7
0 6
5 3
1 6
4 5
0 2
3 7
1 5
3 4
2 5
3 4
5 6
5 8
0 7
3 6
0 0
4 5
2 3
3 6
1 8
3 2
0 3
5 2
4 5
18 4

5 10
23
4 8
3 7
4 3
3 2
4 6
4 8
0 1
0 3
0 6
0 9
4 1
1 4
3 3
3 0
2 7
4 4
4 8
1 2
0 7
2 1
1 6
4 4
1 1
14 1

8 6
19
5 4
0 2
1 0
6 0
3 3
0 1
2 0
2 0
6 1
3 4
7 1
7 4
7 0
7 4
5 3
6 4
0 5
0 3
5 3
5 4

5 9
23
3 7
2 1
4 4
0 6
1 4
1 6
3 7
4 7
1 7
3 4
4 3
4 3
3 3
0 5
4 6
2 7
0 2
0 4
4 1
3 6
3 1
3 5
4 0
13 2

5 5
19
2 1
1 2
1 2
3 4
1 3
1 1
1 0
2 4
1 1
0 0
1 3
1 0
0 2
3 1
4 4
1 0
4 4
4 2
0 2
18 1

10 10
21
2 5
8 6
1 2
2 9
3 1
2 1
3 3
1 3
5 4
1 7
0 8
5 5
5 4
4 0
6 7
4 4
7 3
4 1
8 9
2 5
7 5
9 4

7 5
16
3 4
3 2
3 2
4 0
0 3
2 4
4 4
0 2
1 2
6 4
1 3
2 2
0 4
3 0
5 4
2 4
19 1

6 9
17
0 8
0 7
0 0
3 2
1 6
2 4
2 7
5 1
5 5
5 1
2 0
0 7
5 6
2 5
1 5
5 5
1 4
16 1

10 6
24
3 0
1 0
1 0
5 2
8 3
7 2
3 5
9 0
2 1
9 3
8 1
8 1
8 2
6 1
4 1
8 0
5 3
9 1
5 4
1 2
5 4
9 0
0 1
2 3
9 1

9 9
25
0 8
1 4
4 3
0 3
4 0
7 1
4 8
3 4
6 4
3 6
2 5
8 1
6 2
3 5
2 1
8 7
4 3
5 0
2 8
2 0
0 7
3 8
5 2
1 8
5 1
19 1

9 7
25
4 4
1 3
4 5
6 1
6 5
7 5
6 0
5 6
5 0
2 0
3 6
0 5
4 6
0 4
8 2
3 5
5 2
1 3
6 3
8 3
8 1
0 4
5 6
5 3
0 3
14 2

6 7
15
4 2
5 1
0 0
4 0
0 0
1 3
5 2
0 5
1 2
5 3
1 2
2 0
3 0
0 4
2 1
5 1

5 10
20
1 6
4 0
4 1
0 6
4 4
4 1
2 4
2 3
2 9
3 1
0 9
2 8
2 3
3 0
4 4
2 7
3 1
4 8
0 1
2 3
16 3
